Record Length,2.500000e+03,,   0.001860000000,   0.16000,
Sample Interval,4.000000e-07,,   0.001860400000,   0.14400,
Trigger Point,-4.650000000000e+03,,   0.001860800000,   0.15200,
,,,   0.001861200000,   0.15200,
,,,   0.001861600000,   0.15200,
,,,   0.001862000000,   0.15200,
Source,CH2,,   0.001862400000,   0.15200,
Vertical Units,V,,   0.001862800000,   0.15200,
Vertical Scale,2.000000e-01,,   0.001863200000,   0.14400,
Vertical Offset,-3.760000e-01,,   0.001863600000,   0.14400,
Horizontal Units,s,,   0.001864000000,   0.14400,
Horizontal Scale,1.000000e-04,,   0.001864400000,   0.14400,
Pt Fmt,Y,,   0.001864800000,   0.13600,
Yzero,0.000000e+00,,   0.001865200000,   0.13600,
Probe Atten,1.000000e+00,,   0.001865600000,   0.14400,
Model Number,TDS1001B,,   0.001866000000,   0.13600,
Serial Number,C059827,,   0.001866400000,   0.13600,
Firmware Version,FV:v22.01,,   0.001866800000,   0.13600,
,,,0.001867200000,   0.13600,
,,,0.001867600000,   0.12800,
,,,0.001868000000,   0.13600,
,,,0.001868400000,   0.12800,
,,,0.001868800000,   0.12000,
,,,0.001869200000,   0.12000,
,,,0.001869600000,   0.12800,
,,,0.001870000000,   0.12800,
,,,0.001870400000,   0.12000,
,,,0.001870800000,   0.12000,
,,,0.001871200000,   0.12000,
,,,0.001871600000,   0.12000,
,,,0.001872000000,   0.12000,
,,,0.001872400000,   0.11200,
,,,0.001872800000,   0.12000,
,,,0.001873200000,   0.10400,
,,,0.001873600000,   0.11200,
,,,0.001874000000,   0.10400,
,,,0.001874400000,   0.10400,
,,,0.001874800000,   0.11200,
,,,0.001875200000,   0.11200,
,,,0.001875600000,   0.09600,
,,,0.001876000000,   0.10400,
,,,0.001876400000,   0.10400,
,,,0.001876800000,   0.10400,
,,,0.001877200000,   0.09600,
,,,0.001877600000,   0.09600,
,,,0.001878000000,   0.08800,
,,,0.001878400000,   0.09600,
,,,0.001878800000,   0.08800,
,,,0.001879200000,   0.08000,
,,,0.001879600000,   0.08800,
,,,0.001880000000,   0.08000,
,,,0.001880400000,   0.07200,
,,,0.001880800000,   0.08800,
,,,0.001881200000,   0.08000,
,,,0.001881600000,   0.07200,
,,,0.001882000000,   0.07200,
,,,0.001882400000,   0.08000,
,,,0.001882800000,   0.07200,
,,,0.001883200000,   0.07200,
,,,0.001883600000,   0.06400,
,,,0.001884000000,   0.06400,
,,,0.001884400000,   0.06400,
,,,0.001884800000,   0.06400,
,,,0.001885200000,   0.05600,
,,,0.001885600000,   0.06400,
,,,0.001886000000,   0.05600,
,,,0.001886400000,   0.06400,
,,,0.001886800000,   0.05600,
,,,0.001887200000,   0.06400,
,,,0.001887600000,   0.04800,
,,,0.001888000000,   0.04000,
,,,0.001888400000,   0.04800,
,,,0.001888800000,   0.03200,
,,,0.001889200000,   0.04000,
,,,0.001889600000,   0.04800,
,,,0.001890000000,   0.04000,
,,,0.001890400000,   0.03200,
,,,0.001890800000,   0.04000,
,,,0.001891200000,   0.03200,
,,,0.001891600000,   0.04000,
,,,0.001892000000,   0.03200,
,,,0.001892400000,   0.03200,
,,,0.001892800000,   0.03200,
,,,0.001893200000,   0.03200,
,,,0.001893600000,   0.01600,
,,,0.001894000000,   0.02400,
,,,0.001894400000,   0.01600,
,,,0.001894800000,   0.02400,
,,,0.001895200000,   0.02400,
,,,0.001895600000,   0.02400,
,,,0.001896000000,   0.02400,
,,,0.001896400000,   0.01600,
,,,0.001896800000,   0.00800,
,,,0.001897200000,   0.01600,
,,,0.001897600000,   0.00800,
,,,0.001898000000,   0.00800,
,,,0.001898400000,   0.00800,
,,,0.001898800000,  -0.00800,
,,,0.001899200000,   0.00800,
,,,0.001899600000,   0.00800,
,,,0.001900000000,  -0.00800,
,,,0.001900400000,  -0.00800,
,,,0.001900800000,   0.00000,
,,,0.001901200000,   0.00000,
,,,0.001901600000,  -0.00800,
,,,0.001902000000,  -0.01600,
,,,0.001902400000,  -0.00800,
,,,0.001902800000,  -0.00800,
,,,0.001903200000,  -0.00800,
,,,0.001903600000,  -0.02400,
,,,0.001904000000,  -0.03200,
,,,0.001904400000,  -0.02400,
,,,0.001904800000,  -0.02400,
,,,0.001905200000,  -0.02400,
,,,0.001905600000,  -0.02400,
,,,0.001906000000,  -0.02400,
,,,0.001906400000,  -0.02400,
,,,0.001906800000,  -0.03200,
,,,0.001907200000,  -0.03200,
,,,0.001907600000,  -0.03200,
,,,0.001908000000,  -0.04000,
,,,0.001908400000,  -0.02400,
,,,0.001908800000,  -0.04800,
,,,0.001909200000,  -0.03200,
,,,0.001909600000,  -0.04000,
,,,0.001910000000,  -0.05600,
,,,0.001910400000,  -0.04800,
,,,0.001910800000,  -0.04800,
,,,0.001911200000,  -0.04800,
,,,0.001911600000,  -0.04000,
,,,0.001912000000,  -0.05600,
,,,0.001912400000,  -0.05600,
,,,0.001912800000,  -0.04800,
,,,0.001913200000,  -0.05600,
,,,0.001913600000,  -0.05600,
,,,0.001914000000,  -0.05600,
,,,0.001914400000,  -0.06400,
,,,0.001914800000,  -0.06400,
,,,0.001915200000,  -0.07200,
,,,0.001915600000,  -0.07200,
,,,0.001916000000,  -0.07200,
,,,0.001916400000,  -0.07200,
,,,0.001916800000,  -0.08000,
,,,0.001917200000,  -0.07200,
,,,0.001917600000,  -0.08000,
,,,0.001918000000,  -0.07200,
,,,0.001918400000,  -0.08000,
,,,0.001918800000,  -0.08000,
,,,0.001919200000,  -0.08000,
,,,0.001919600000,  -0.08000,
,,,0.001920000000,  -0.09600,
,,,0.001920400000,  -0.08000,
,,,0.001920800000,  -0.09600,
,,,0.001921200000,  -0.08800,
,,,0.001921600000,  -0.09600,
,,,0.001922000000,  -0.08800,
,,,0.001922400000,  -0.10400,
,,,0.001922800000,  -0.09600,
,,,0.001923200000,  -0.10400,
,,,0.001923600000,  -0.09600,
,,,0.001924000000,  -0.10400,
,,,0.001924400000,  -0.09600,
,,,0.001924800000,  -0.11200,
,,,0.001925200000,  -0.10400,
,,,0.001925600000,  -0.10400,
,,,0.001926000000,  -0.11200,
,,,0.001926400000,  -0.11200,
,,,0.001926800000,  -0.11200,
,,,0.001927200000,  -0.12000,
,,,0.001927600000,  -0.12000,
,,,0.001928000000,  -0.11200,
,,,0.001928400000,  -0.12000,
,,,0.001928800000,  -0.13600,
,,,0.001929200000,  -0.12000,
,,,0.001929600000,  -0.12000,
,,,0.001930000000,  -0.13600,
,,,0.001930400000,  -0.12800,
,,,0.001930800000,  -0.13600,
,,,0.001931200000,  -0.12800,
,,,0.001931600000,  -0.13600,
,,,0.001932000000,  -0.12800,
,,,0.001932400000,  -0.12800,
,,,0.001932800000,  -0.13600,
,,,0.001933200000,  -0.14400,
,,,0.001933600000,  -0.13600,
,,,0.001934000000,  -0.13600,
,,,0.001934400000,  -0.13600,
,,,0.001934800000,  -0.14400,
,,,0.001935200000,  -0.14400,
,,,0.001935600000,  -0.12800,
,,,0.001936000000,  -0.13600,
,,,0.001936400000,  -0.15200,
,,,0.001936800000,  -0.15200,
,,,0.001937200000,  -0.14400,
,,,0.001937600000,  -0.15200,
,,,0.001938000000,  -0.15200,
,,,0.001938400000,  -0.16000,
,,,0.001938800000,  -0.16000,
,,,0.001939200000,  -0.15200,
,,,0.001939600000,  -0.16800,
,,,0.001940000000,  -0.16000,
,,,0.001940400000,  -0.16000,
,,,0.001940800000,  -0.16000,
,,,0.001941200000,  -0.16800,
,,,0.001941600000,  -0.16800,
,,,0.001942000000,  -0.16000,
,,,0.001942400000,  -0.16000,
,,,0.001942800000,  -0.16800,
,,,0.001943200000,  -0.17600,
,,,0.001943600000,  -0.16800,
,,,0.001944000000,  -0.17600,
,,,0.001944400000,  -0.17600,
,,,0.001944800000,  -0.17600,
,,,0.001945200000,  -0.16800,
,,,0.001945600000,  -0.17600,
,,,0.001946000000,  -0.17600,
,,,0.001946400000,  -0.17600,
,,,0.001946800000,  -0.16800,
,,,0.001947200000,  -0.18400,
,,,0.001947600000,  -0.17600,
,,,0.001948000000,  -0.17600,
,,,0.001948400000,  -0.17600,
,,,0.001948800000,  -0.18400,
,,,0.001949200000,  -0.18400,
,,,0.001949600000,  -0.19200,
,,,0.001950000000,  -0.17600,
,,,0.001950400000,  -0.18400,
,,,0.001950800000,  -0.19200,
,,,0.001951200000,  -0.18400,
,,,0.001951600000,  -0.19200,
,,,0.001952000000,  -0.18400,
,,,0.001952400000,  -0.19200,
,,,0.001952800000,  -0.19200,
,,,0.001953200000,  -0.19200,
,,,0.001953600000,  -0.18400,
,,,0.001954000000,  -0.19200,
,,,0.001954400000,  -0.19200,
,,,0.001954800000,  -0.20800,
,,,0.001955200000,  -0.19200,
,,,0.001955600000,  -0.20000,
,,,0.001956000000,  -0.19200,
,,,0.001956400000,  -0.20000,
,,,0.001956800000,  -0.19200,
,,,0.001957200000,  -0.20000,
,,,0.001957600000,  -0.19200,
,,,0.001958000000,  -0.20000,
,,,0.001958400000,  -0.21600,
,,,0.001958800000,  -0.20000,
,,,0.001959200000,  -0.20000,
,,,0.001959600000,  -0.20800,
,,,0.001960000000,  -0.19200,
,,,0.001960400000,  -0.20800,
,,,0.001960800000,  -0.20800,
,,,0.001961200000,  -0.20800,
,,,0.001961600000,  -0.20800,
,,,0.001962000000,  -0.20800,
,,,0.001962400000,  -0.21600,
,,,0.001962800000,  -0.20800,
,,,0.001963200000,  -0.20800,
,,,0.001963600000,  -0.21600,
,,,0.001964000000,  -0.20800,
,,,0.001964400000,  -0.20800,
,,,0.001964800000,  -0.20800,
,,,0.001965200000,  -0.21600,
,,,0.001965600000,  -0.20800,
,,,0.001966000000,  -0.21600,
,,,0.001966400000,  -0.21600,
,,,0.001966800000,  -0.22400,
,,,0.001967200000,  -0.21600,
,,,0.001967600000,  -0.21600,
,,,0.001968000000,  -0.22400,
,,,0.001968400000,  -0.23200,
,,,0.001968800000,  -0.21600,
,,,0.001969200000,  -0.21600,
,,,0.001969600000,  -0.23200,
,,,0.001970000000,  -0.20800,
,,,0.001970400000,  -0.22400,
,,,0.001970800000,  -0.21600,
,,,0.001971200000,  -0.23200,
,,,0.001971600000,  -0.21600,
,,,0.001972000000,  -0.21600,
,,,0.001972400000,  -0.21600,
,,,0.001972800000,  -0.23200,
,,,0.001973200000,  -0.21600,
,,,0.001973600000,  -0.22400,
,,,0.001974000000,  -0.22400,
,,,0.001974400000,  -0.22400,
,,,0.001974800000,  -0.22400,
,,,0.001975200000,  -0.21600,
,,,0.001975600000,  -0.21600,
,,,0.001976000000,  -0.23200,
,,,0.001976400000,  -0.21600,
,,,0.001976800000,  -0.23200,
,,,0.001977200000,  -0.21600,
,,,0.001977600000,  -0.22400,
,,,0.001978000000,  -0.23200,
,,,0.001978400000,  -0.23200,
,,,0.001978800000,  -0.22400,
,,,0.001979200000,  -0.24000,
,,,0.001979600000,  -0.23200,
,,,0.001980000000,  -0.22400,
,,,0.001980400000,  -0.22400,
,,,0.001980800000,  -0.22400,
,,,0.001981200000,  -0.23200,
,,,0.001981600000,  -0.21600,
,,,0.001982000000,  -0.22400,
,,,0.001982400000,  -0.23200,
,,,0.001982800000,  -0.23200,
,,,0.001983200000,  -0.23200,
,,,0.001983600000,  -0.22400,
,,,0.001984000000,  -0.23200,
,,,0.001984400000,  -0.22400,
,,,0.001984800000,  -0.22400,
,,,0.001985200000,  -0.22400,
,,,0.001985600000,  -0.21600,
,,,0.001986000000,  -0.23200,
,,,0.001986400000,  -0.21600,
,,,0.001986800000,  -0.21600,
,,,0.001987200000,  -0.22400,
,,,0.001987600000,  -0.22400,
,,,0.001988000000,  -0.22400,
,,,0.001988400000,  -0.22400,
,,,0.001988800000,  -0.23200,
,,,0.001989200000,  -0.22400,
,,,0.001989600000,  -0.22400,
,,,0.001990000000,  -0.21600,
,,,0.001990400000,  -0.22400,
,,,0.001990800000,  -0.21600,
,,,0.001991200000,  -0.22400,
,,,0.001991600000,  -0.22400,
,,,0.001992000000,  -0.21600,
,,,0.001992400000,  -0.22400,
,,,0.001992800000,  -0.22400,
,,,0.001993200000,  -0.21600,
,,,0.001993600000,  -0.21600,
,,,0.001994000000,  -0.21600,
,,,0.001994400000,  -0.23200,
,,,0.001994800000,  -0.20800,
,,,0.001995200000,  -0.21600,
,,,0.001995600000,  -0.22400,
,,,0.001996000000,  -0.22400,
,,,0.001996400000,  -0.21600,
,,,0.001996800000,  -0.22400,
,,,0.001997200000,  -0.21600,
,,,0.001997600000,  -0.22400,
,,,0.001998000000,  -0.22400,
,,,0.001998400000,  -0.21600,
,,,0.001998800000,  -0.20800,
,,,0.001999200000,  -0.22400,
,,,0.001999600000,  -0.20800,
,,,0.002000000000,  -0.20800,
,,,0.002000400000,  -0.20800,
,,,0.002000800000,  -0.20800,
,,,0.002001200000,  -0.20800,
,,,0.002001600000,  -0.21600,
,,,0.002002000000,  -0.20800,
,,,0.002002400000,  -0.21600,
,,,0.002002800000,  -0.21600,
,,,0.002003200000,  -0.20800,
,,,0.002003600000,  -0.20800,
,,,0.002004000000,  -0.20800,
,,,0.002004400000,  -0.20800,
,,,0.002004800000,  -0.20000,
,,,0.002005200000,  -0.19200,
,,,0.002005600000,  -0.20000,
,,,0.002006000000,  -0.20000,
,,,0.002006400000,  -0.20000,
,,,0.002006800000,  -0.20800,
,,,0.002007200000,  -0.19200,
,,,0.002007600000,  -0.20800,
,,,0.002008000000,  -0.20800,
,,,0.002008400000,  -0.20000,
,,,0.002008800000,  -0.19200,
,,,0.002009200000,  -0.20800,
,,,0.002009600000,  -0.18400,
,,,0.002010000000,  -0.19200,
,,,0.002010400000,  -0.19200,
,,,0.002010800000,  -0.20000,
,,,0.002011200000,  -0.19200,
,,,0.002011600000,  -0.18400,
,,,0.002012000000,  -0.19200,
,,,0.002012400000,  -0.20000,
,,,0.002012800000,  -0.19200,
,,,0.002013200000,  -0.18400,
,,,0.002013600000,  -0.18400,
,,,0.002014000000,  -0.19200,
,,,0.002014400000,  -0.17600,
,,,0.002014800000,  -0.18400,
,,,0.002015200000,  -0.17600,
,,,0.002015600000,  -0.19200,
,,,0.002016000000,  -0.18400,
,,,0.002016400000,  -0.17600,
,,,0.002016800000,  -0.17600,
,,,0.002017200000,  -0.18400,
,,,0.002017600000,  -0.18400,
,,,0.002018000000,  -0.18400,
,,,0.002018400000,  -0.17600,
,,,0.002018800000,  -0.17600,
,,,0.002019200000,  -0.18400,
,,,0.002019600000,  -0.16800,
,,,0.002020000000,  -0.16800,
,,,0.002020400000,  -0.16800,
,,,0.002020800000,  -0.16800,
,,,0.002021200000,  -0.16000,
,,,0.002021600000,  -0.16800,
,,,0.002022000000,  -0.16800,
,,,0.002022400000,  -0.17600,
,,,0.002022800000,  -0.17600,
,,,0.002023200000,  -0.16000,
,,,0.002023600000,  -0.15200,
,,,0.002024000000,  -0.16000,
,,,0.002024400000,  -0.16000,
,,,0.002024800000,  -0.15200,
,,,0.002025200000,  -0.15200,
,,,0.002025600000,  -0.15200,
,,,0.002026000000,  -0.15200,
,,,0.002026400000,  -0.16000,
,,,0.002026800000,  -0.15200,
,,,0.002027200000,  -0.14400,
,,,0.002027600000,  -0.14400,
,,,0.002028000000,  -0.14400,
,,,0.002028400000,  -0.15200,
,,,0.002028800000,  -0.15200,
,,,0.002029200000,  -0.13600,
,,,0.002029600000,  -0.14400,
,,,0.002030000000,  -0.13600,
,,,0.002030400000,  -0.13600,
,,,0.002030800000,  -0.13600,
,,,0.002031200000,  -0.12800,
,,,0.002031600000,  -0.13600,
,,,0.002032000000,  -0.12800,
,,,0.002032400000,  -0.12800,
,,,0.002032800000,  -0.13600,
,,,0.002033200000,  -0.12800,
,,,0.002033600000,  -0.12000,
,,,0.002034000000,  -0.14400,
,,,0.002034400000,  -0.12800,
,,,0.002034800000,  -0.12800,
,,,0.002035200000,  -0.11200,
,,,0.002035600000,  -0.11200,
,,,0.002036000000,  -0.12000,
,,,0.002036400000,  -0.12000,
,,,0.002036800000,  -0.11200,
,,,0.002037200000,  -0.12800,
,,,0.002037600000,  -0.11200,
,,,0.002038000000,  -0.11200,
,,,0.002038400000,  -0.11200,
,,,0.002038800000,  -0.11200,
,,,0.002039200000,  -0.10400,
,,,0.002039600000,  -0.11200,
,,,0.002040000000,  -0.10400,
,,,0.002040400000,  -0.09600,
,,,0.002040800000,  -0.08800,
,,,0.002041200000,  -0.10400,
,,,0.002041600000,  -0.09600,
,,,0.002042000000,  -0.09600,
,,,0.002042400000,  -0.09600,
,,,0.002042800000,  -0.10400,
,,,0.002043200000,  -0.08000,
,,,0.002043600000,  -0.09600,
,,,0.002044000000,  -0.08800,
,,,0.002044400000,  -0.08800,
,,,0.002044800000,  -0.08000,
,,,0.002045200000,  -0.08800,
,,,0.002045600000,  -0.08000,
,,,0.002046000000,  -0.08800,
,,,0.002046400000,  -0.08000,
,,,0.002046800000,  -0.08000,
,,,0.002047200000,  -0.08000,
,,,0.002047600000,  -0.08000,
,,,0.002048000000,  -0.08000,
,,,0.002048400000,  -0.07200,
,,,0.002048800000,  -0.07200,
,,,0.002049200000,  -0.06400,
,,,0.002049600000,  -0.07200,
,,,0.002050000000,  -0.07200,
,,,0.002050400000,  -0.06400,
,,,0.002050800000,  -0.05600,
,,,0.002051200000,  -0.05600,
,,,0.002051600000,  -0.06400,
,,,0.002052000000,  -0.06400,
,,,0.002052400000,  -0.07200,
,,,0.002052800000,  -0.06400,
,,,0.002053200000,  -0.04000,
,,,0.002053600000,  -0.05600,
,,,0.002054000000,  -0.04800,
,,,0.002054400000,  -0.04800,
,,,0.002054800000,  -0.04000,
,,,0.002055200000,  -0.04800,
,,,0.002055600000,  -0.04000,
,,,0.002056000000,  -0.04000,
,,,0.002056400000,  -0.04000,
,,,0.002056800000,  -0.04000,
,,,0.002057200000,  -0.04000,
,,,0.002057600000,  -0.03200,
,,,0.002058000000,  -0.03200,
,,,0.002058400000,  -0.04800,
,,,0.002058800000,  -0.03200,
,,,0.002059200000,  -0.01600,
,,,0.002059600000,  -0.02400,
,,,0.002060000000,  -0.02400,
,,,0.002060400000,  -0.02400,
,,,0.002060800000,  -0.01600,
,,,0.002061200000,  -0.00800,
,,,0.002061600000,  -0.00800,
,,,0.002062000000,  -0.02400,
,,,0.002062400000,  -0.02400,
,,,0.002062800000,  -0.01600,
,,,0.002063200000,  -0.01600,
,,,0.002063600000,  -0.00800,
,,,0.002064000000,   0.00000,
,,,0.002064400000,   0.00000,
,,,0.002064800000,  -0.00800,
,,,0.002065200000,   0.00800,
,,,0.002065600000,   0.00000,
,,,0.002066000000,   0.00000,
,,,0.002066400000,   0.00800,
,,,0.002066800000,   0.01600,
,,,0.002067200000,   0.00800,
,,,0.002067600000,   0.00800,
,,,0.002068000000,   0.00800,
,,,0.002068400000,   0.00800,
,,,0.002068800000,   0.00800,
,,,0.002069200000,   0.01600,
,,,0.002069600000,   0.02400,
,,,0.002070000000,   0.02400,
,,,0.002070400000,   0.02400,
,,,0.002070800000,   0.03200,
,,,0.002071200000,   0.03200,
,,,0.002071600000,   0.03200,
,,,0.002072000000,   0.02400,
,,,0.002072400000,   0.03200,
,,,0.002072800000,   0.03200,
,,,0.002073200000,   0.04000,
,,,0.002073600000,   0.02400,
,,,0.002074000000,   0.03200,
,,,0.002074400000,   0.04800,
,,,0.002074800000,   0.04800,
,,,0.002075200000,   0.04000,
,,,0.002075600000,   0.04000,
,,,0.002076000000,   0.04000,
,,,0.002076400000,   0.04800,
,,,0.002076800000,   0.04800,
,,,0.002077200000,   0.04800,
,,,0.002077600000,   0.06400,
,,,0.002078000000,   0.06400,
,,,0.002078400000,   0.05600,
,,,0.002078800000,   0.06400,
,,,0.002079200000,   0.06400,
,,,0.002079600000,   0.05600,
,,,0.002080000000,   0.07200,
,,,0.002080400000,   0.05600,
,,,0.002080800000,   0.06400,
,,,0.002081200000,   0.07200,
,,,0.002081600000,   0.07200,
,,,0.002082000000,   0.07200,
,,,0.002082400000,   0.07200,
,,,0.002082800000,   0.07200,
,,,0.002083200000,   0.08000,
,,,0.002083600000,   0.08000,
,,,0.002084000000,   0.08800,
,,,0.002084400000,   0.08000,
,,,0.002084800000,   0.07200,
,,,0.002085200000,   0.08800,
,,,0.002085600000,   0.08000,
,,,0.002086000000,   0.08000,
,,,0.002086400000,   0.09600,
,,,0.002086800000,   0.08800,
,,,0.002087200000,   0.08000,
,,,0.002087600000,   0.09600,
,,,0.002088000000,   0.09600,
,,,0.002088400000,   0.09600,
,,,0.002088800000,   0.10400,
,,,0.002089200000,   0.09600,
,,,0.002089600000,   0.11200,
,,,0.002090000000,   0.09600,
,,,0.002090400000,   0.10400,
,,,0.002090800000,   0.10400,
,,,0.002091200000,   0.11200,
,,,0.002091600000,   0.10400,
,,,0.002092000000,   0.10400,
,,,0.002092400000,   0.11200,
,,,0.002092800000,   0.11200,
,,,0.002093200000,   0.11200,
,,,0.002093600000,   0.12000,
,,,0.002094000000,   0.12800,
,,,0.002094400000,   0.12000,
,,,0.002094800000,   0.12000,
,,,0.002095200000,   0.12000,
,,,0.002095600000,   0.12000,
,,,0.002096000000,   0.12800,
,,,0.002096400000,   0.12800,
,,,0.002096800000,   0.12000,
,,,0.002097200000,   0.12800,
,,,0.002097600000,   0.13600,
,,,0.002098000000,   0.12800,
,,,0.002098400000,   0.12800,
,,,0.002098800000,   0.14400,
,,,0.002099200000,   0.15200,
,,,0.002099600000,   0.14400,
,,,0.002100000000,   0.13600,
,,,0.002100400000,   0.14400,
,,,0.002100800000,   0.14400,
,,,0.002101200000,   0.15200,
,,,0.002101600000,   0.14400,
,,,0.002102000000,   0.14400,
,,,0.002102400000,   0.14400,
,,,0.002102800000,   0.16000,
,,,0.002103200000,   0.16000,
,,,0.002103600000,   0.16000,
,,,0.002104000000,   0.16800,
,,,0.002104400000,   0.16000,
,,,0.002104800000,   0.16000,
,,,0.002105200000,   0.16000,
,,,0.002105600000,   0.16000,
,,,0.002106000000,   0.16000,
,,,0.002106400000,   0.16800,
,,,0.002106800000,   0.16800,
,,,0.002107200000,   0.17600,
,,,0.002107600000,   0.16800,
,,,0.002108000000,   0.16800,
,,,0.002108400000,   0.16800,
,,,0.002108800000,   0.17600,
,,,0.002109200000,   0.17600,
,,,0.002109600000,   0.17600,
,,,0.002110000000,   0.16800,
,,,0.002110400000,   0.17600,
,,,0.002110800000,   0.18400,
,,,0.002111200000,   0.18400,
,,,0.002111600000,   0.18400,
,,,0.002112000000,   0.18400,
,,,0.002112400000,   0.17600,
,,,0.002112800000,   0.18400,
,,,0.002113200000,   0.17600,
,,,0.002113600000,   0.18400,
,,,0.002114000000,   0.19200,
,,,0.002114400000,   0.18400,
,,,0.002114800000,   0.19200,
,,,0.002115200000,   0.20000,
,,,0.002115600000,   0.19200,
,,,0.002116000000,   0.18400,
,,,0.002116400000,   0.18400,
,,,0.002116800000,   0.19200,
,,,0.002117200000,   0.20000,
,,,0.002117600000,   0.20800,
,,,0.002118000000,   0.19200,
,,,0.002118400000,   0.19200,
,,,0.002118800000,   0.20000,
,,,0.002119200000,   0.20000,
,,,0.002119600000,   0.20000,
,,,0.002120000000,   0.21600,
,,,0.002120400000,   0.20000,
,,,0.002120800000,   0.20800,
,,,0.002121200000,   0.20000,
,,,0.002121600000,   0.20800,
,,,0.002122000000,   0.20000,
,,,0.002122400000,   0.20800,
,,,0.002122800000,   0.20000,
,,,0.002123200000,   0.20800,
,,,0.002123600000,   0.21600,
,,,0.002124000000,   0.21600,
,,,0.002124400000,   0.21600,
,,,0.002124800000,   0.21600,
,,,0.002125200000,   0.20800,
,,,0.002125600000,   0.20800,
,,,0.002126000000,   0.21600,
,,,0.002126400000,   0.20800,
,,,0.002126800000,   0.20000,
,,,0.002127200000,   0.22400,
,,,0.002127600000,   0.21600,
,,,0.002128000000,   0.21600,
,,,0.002128400000,   0.21600,
,,,0.002128800000,   0.20800,
,,,0.002129200000,   0.22400,
,,,0.002129600000,   0.21600,
,,,0.002130000000,   0.22400,
,,,0.002130400000,   0.22400,
,,,0.002130800000,   0.22400,
,,,0.002131200000,   0.21600,
,,,0.002131600000,   0.21600,
,,,0.002132000000,   0.22400,
,,,0.002132400000,   0.21600,
,,,0.002132800000,   0.21600,
,,,0.002133200000,   0.22400,
,,,0.002133600000,   0.22400,
,,,0.002134000000,   0.22400,
,,,0.002134400000,   0.22400,
,,,0.002134800000,   0.22400,
,,,0.002135200000,   0.23200,
,,,0.002135600000,   0.23200,
,,,0.002136000000,   0.21600,
,,,0.002136400000,   0.21600,
,,,0.002136800000,   0.22400,
,,,0.002137200000,   0.23200,
,,,0.002137600000,   0.22400,
,,,0.002138000000,   0.23200,
,,,0.002138400000,   0.23200,
,,,0.002138800000,   0.23200,
,,,0.002139200000,   0.23200,
,,,0.002139600000,   0.23200,
,,,0.002140000000,   0.24800,
,,,0.002140400000,   0.23200,
,,,0.002140800000,   0.23200,
,,,0.002141200000,   0.23200,
,,,0.002141600000,   0.22400,
,,,0.002142000000,   0.23200,
,,,0.002142400000,   0.22400,
,,,0.002142800000,   0.23200,
,,,0.002143200000,   0.23200,
,,,0.002143600000,   0.23200,
,,,0.002144000000,   0.23200,
,,,0.002144400000,   0.22400,
,,,0.002144800000,   0.24000,
,,,0.002145200000,   0.24000,
,,,0.002145600000,   0.23200,
,,,0.002146000000,   0.23200,
,,,0.002146400000,   0.23200,
,,,0.002146800000,   0.24000,
,,,0.002147200000,   0.24000,
,,,0.002147600000,   0.23200,
,,,0.002148000000,   0.23200,
,,,0.002148400000,   0.22400,
,,,0.002148800000,   0.24000,
,,,0.002149200000,   0.24000,
,,,0.002149600000,   0.23200,
,,,0.002150000000,   0.23200,
,,,0.002150400000,   0.23200,
,,,0.002150800000,   0.23200,
,,,0.002151200000,   0.23200,
,,,0.002151600000,   0.23200,
,,,0.002152000000,   0.23200,
,,,0.002152400000,   0.24000,
,,,0.002152800000,   0.22400,
,,,0.002153200000,   0.23200,
,,,0.002153600000,   0.23200,
,,,0.002154000000,   0.22400,
,,,0.002154400000,   0.23200,
,,,0.002154800000,   0.23200,
,,,0.002155200000,   0.22400,
,,,0.002155600000,   0.23200,
,,,0.002156000000,   0.22400,
,,,0.002156400000,   0.22400,
,,,0.002156800000,   0.24000,
,,,0.002157200000,   0.24000,
,,,0.002157600000,   0.22400,
,,,0.002158000000,   0.23200,
,,,0.002158400000,   0.22400,
,,,0.002158800000,   0.22400,
,,,0.002159200000,   0.23200,
,,,0.002159600000,   0.23200,
,,,0.002160000000,   0.22400,
,,,0.002160400000,   0.22400,
,,,0.002160800000,   0.22400,
,,,0.002161200000,   0.22400,
,,,0.002161600000,   0.23200,
,,,0.002162000000,   0.22400,
,,,0.002162400000,   0.22400,
,,,0.002162800000,   0.23200,
,,,0.002163200000,   0.23200,
,,,0.002163600000,   0.23200,
,,,0.002164000000,   0.22400,
,,,0.002164400000,   0.22400,
,,,0.002164800000,   0.21600,
,,,0.002165200000,   0.22400,
,,,0.002165600000,   0.22400,
,,,0.002166000000,   0.21600,
,,,0.002166400000,   0.20800,
,,,0.002166800000,   0.21600,
,,,0.002167200000,   0.21600,
,,,0.002167600000,   0.21600,
,,,0.002168000000,   0.21600,
,,,0.002168400000,   0.21600,
,,,0.002168800000,   0.21600,
,,,0.002169200000,   0.21600,
,,,0.002169600000,   0.21600,
,,,0.002170000000,   0.21600,
,,,0.002170400000,   0.21600,
,,,0.002170800000,   0.21600,
,,,0.002171200000,   0.20800,
,,,0.002171600000,   0.20000,
,,,0.002172000000,   0.20800,
,,,0.002172400000,   0.20800,
,,,0.002172800000,   0.20800,
,,,0.002173200000,   0.20800,
,,,0.002173600000,   0.21600,
,,,0.002174000000,   0.20000,
,,,0.002174400000,   0.20800,
,,,0.002174800000,   0.20800,
,,,0.002175200000,   0.20000,
,,,0.002175600000,   0.20000,
,,,0.002176000000,   0.20000,
,,,0.002176400000,   0.19200,
,,,0.002176800000,   0.20000,
,,,0.002177200000,   0.19200,
,,,0.002177600000,   0.20000,
,,,0.002178000000,   0.19200,
,,,0.002178400000,   0.19200,
,,,0.002178800000,   0.20000,
,,,0.002179200000,   0.19200,
,,,0.002179600000,   0.20000,
,,,0.002180000000,   0.19200,
,,,0.002180400000,   0.19200,
,,,0.002180800000,   0.20000,
,,,0.002181200000,   0.18400,
,,,0.002181600000,   0.18400,
,,,0.002182000000,   0.18400,
,,,0.002182400000,   0.17600,
,,,0.002182800000,   0.19200,
,,,0.002183200000,   0.19200,
,,,0.002183600000,   0.18400,
,,,0.002184000000,   0.18400,
,,,0.002184400000,   0.18400,
,,,0.002184800000,   0.18400,
,,,0.002185200000,   0.17600,
,,,0.002185600000,   0.18400,
,,,0.002186000000,   0.17600,
,,,0.002186400000,   0.18400,
,,,0.002186800000,   0.17600,
,,,0.002187200000,   0.16800,
,,,0.002187600000,   0.17600,
,,,0.002188000000,   0.16800,
,,,0.002188400000,   0.17600,
,,,0.002188800000,   0.16800,
,,,0.002189200000,   0.16800,
,,,0.002189600000,   0.16800,
,,,0.002190000000,   0.16800,
,,,0.002190400000,   0.16000,
,,,0.002190800000,   0.16800,
,,,0.002191200000,   0.16000,
,,,0.002191600000,   0.16800,
,,,0.002192000000,   0.16000,
,,,0.002192400000,   0.14400,
,,,0.002192800000,   0.16000,
,,,0.002193200000,   0.16000,
,,,0.002193600000,   0.16000,
,,,0.002194000000,   0.15200,
,,,0.002194400000,   0.16000,
,,,0.002194800000,   0.16000,
,,,0.002195200000,   0.14400,
,,,0.002195600000,   0.13600,
,,,0.002196000000,   0.14400,
,,,0.002196400000,   0.14400,
,,,0.002196800000,   0.15200,
,,,0.002197200000,   0.14400,
,,,0.002197600000,   0.14400,
,,,0.002198000000,   0.13600,
,,,0.002198400000,   0.14400,
,,,0.002198800000,   0.13600,
,,,0.002199200000,   0.14400,
,,,0.002199600000,   0.12800,
,,,0.002200000000,   0.13600,
,,,0.002200400000,   0.12800,
,,,0.002200800000,   0.13600,
,,,0.002201200000,   0.12800,
,,,0.002201600000,   0.12800,
,,,0.002202000000,   0.12000,
,,,0.002202400000,   0.12800,
,,,0.002202800000,   0.12800,
,,,0.002203200000,   0.12000,
,,,0.002203600000,   0.12000,
,,,0.002204000000,   0.11200,
,,,0.002204400000,   0.11200,
,,,0.002204800000,   0.11200,
,,,0.002205200000,   0.11200,
,,,0.002205600000,   0.12000,
,,,0.002206000000,   0.10400,
,,,0.002206400000,   0.11200,
,,,0.002206800000,   0.10400,
,,,0.002207200000,   0.10400,
,,,0.002207600000,   0.10400,
,,,0.002208000000,   0.09600,
,,,0.002208400000,   0.10400,
,,,0.002208800000,   0.09600,
,,,0.002209200000,   0.10400,
,,,0.002209600000,   0.09600,
,,,0.002210000000,   0.09600,
,,,0.002210400000,   0.08800,
,,,0.002210800000,   0.08800,
,,,0.002211200000,   0.08800,
,,,0.002211600000,   0.09600,
,,,0.002212000000,   0.08800,
,,,0.002212400000,   0.09600,
,,,0.002212800000,   0.08000,
,,,0.002213200000,   0.08000,
,,,0.002213600000,   0.08000,
,,,0.002214000000,   0.07200,
,,,0.002214400000,   0.07200,
,,,0.002214800000,   0.08000,
,,,0.002215200000,   0.06400,
,,,0.002215600000,   0.07200,
,,,0.002216000000,   0.06400,
,,,0.002216400000,   0.07200,
,,,0.002216800000,   0.06400,
,,,0.002217200000,   0.06400,
,,,0.002217600000,   0.06400,
,,,0.002218000000,   0.05600,
,,,0.002218400000,   0.06400,
,,,0.002218800000,   0.06400,
,,,0.002219200000,   0.04800,
,,,0.002219600000,   0.06400,
,,,0.002220000000,   0.04800,
,,,0.002220400000,   0.04800,
,,,0.002220800000,   0.04800,
,,,0.002221200000,   0.04800,
,,,0.002221600000,   0.04800,
,,,0.002222000000,   0.04000,
,,,0.002222400000,   0.04800,
,,,0.002222800000,   0.04800,
,,,0.002223200000,   0.04000,
,,,0.002223600000,   0.04000,
,,,0.002224000000,   0.04000,
,,,0.002224400000,   0.03200,
,,,0.002224800000,   0.04000,
,,,0.002225200000,   0.03200,
,,,0.002225600000,   0.04000,
,,,0.002226000000,   0.03200,
,,,0.002226400000,   0.03200,
,,,0.002226800000,   0.02400,
,,,0.002227200000,   0.01600,
,,,0.002227600000,   0.02400,
,,,0.002228000000,   0.02400,
,,,0.002228400000,   0.02400,
,,,0.002228800000,   0.02400,
,,,0.002229200000,   0.02400,
,,,0.002229600000,   0.00800,
,,,0.002230000000,   0.01600,
,,,0.002230400000,   0.01600,
,,,0.002230800000,   0.00800,
,,,0.002231200000,   0.00800,
,,,0.002231600000,   0.00800,
,,,0.002232000000,   0.00000,
,,,0.002232400000,   0.00000,
,,,0.002232800000,   0.00000,
,,,0.002233200000,  -0.00800,
,,,0.002233600000,   0.00000,
,,,0.002234000000,  -0.00800,
,,,0.002234400000,  -0.00800,
,,,0.002234800000,  -0.00800,
,,,0.002235200000,  -0.01600,
,,,0.002235600000,  -0.02400,
,,,0.002236000000,   0.00000,
,,,0.002236400000,  -0.01600,
,,,0.002236800000,  -0.01600,
,,,0.002237200000,  -0.01600,
,,,0.002237600000,  -0.03200,
,,,0.002238000000,  -0.02400,
,,,0.002238400000,  -0.01600,
,,,0.002238800000,  -0.02400,
,,,0.002239200000,  -0.03200,
,,,0.002239600000,  -0.02400,
,,,0.002240000000,  -0.03200,
,,,0.002240400000,  -0.03200,
,,,0.002240800000,  -0.04000,
,,,0.002241200000,  -0.04000,
,,,0.002241600000,  -0.04800,
,,,0.002242000000,  -0.04000,
,,,0.002242400000,  -0.03200,
,,,0.002242800000,  -0.04000,
,,,0.002243200000,  -0.04800,
,,,0.002243600000,  -0.05600,
,,,0.002244000000,  -0.05600,
,,,0.002244400000,  -0.04800,
,,,0.002244800000,  -0.04000,
,,,0.002245200000,  -0.04800,
,,,0.002245600000,  -0.07200,
,,,0.002246000000,  -0.05600,
,,,0.002246400000,  -0.05600,
,,,0.002246800000,  -0.07200,
,,,0.002247200000,  -0.06400,
,,,0.002247600000,  -0.06400,
,,,0.002248000000,  -0.07200,
,,,0.002248400000,  -0.06400,
,,,0.002248800000,  -0.07200,
,,,0.002249200000,  -0.07200,
,,,0.002249600000,  -0.06400,
,,,0.002250000000,  -0.08000,
,,,0.002250400000,  -0.08000,
,,,0.002250800000,  -0.08000,
,,,0.002251200000,  -0.08800,
,,,0.002251600000,  -0.08000,
,,,0.002252000000,  -0.07200,
,,,0.002252400000,  -0.08000,
,,,0.002252800000,  -0.08000,
,,,0.002253200000,  -0.09600,
,,,0.002253600000,  -0.08800,
,,,0.002254000000,  -0.09600,
,,,0.002254400000,  -0.08800,
,,,0.002254800000,  -0.09600,
,,,0.002255200000,  -0.09600,
,,,0.002255600000,  -0.10400,
,,,0.002256000000,  -0.09600,
,,,0.002256400000,  -0.11200,
,,,0.002256800000,  -0.10400,
,,,0.002257200000,  -0.09600,
,,,0.002257600000,  -0.10400,
,,,0.002258000000,  -0.09600,
,,,0.002258400000,  -0.11200,
,,,0.002258800000,  -0.09600,
,,,0.002259200000,  -0.10400,
,,,0.002259600000,  -0.11200,
,,,0.002260000000,  -0.12000,
,,,0.002260400000,  -0.12000,
,,,0.002260800000,  -0.11200,
,,,0.002261200000,  -0.12000,
,,,0.002261600000,  -0.12000,
,,,0.002262000000,  -0.12000,
,,,0.002262400000,  -0.12000,
,,,0.002262800000,  -0.12800,
,,,0.002263200000,  -0.12800,
,,,0.002263600000,  -0.12000,
,,,0.002264000000,  -0.12800,
,,,0.002264400000,  -0.12000,
,,,0.002264800000,  -0.12800,
,,,0.002265200000,  -0.12800,
,,,0.002265600000,  -0.12800,
,,,0.002266000000,  -0.13600,
,,,0.002266400000,  -0.14400,
,,,0.002266800000,  -0.13600,
,,,0.002267200000,  -0.12800,
,,,0.002267600000,  -0.13600,
,,,0.002268000000,  -0.14400,
,,,0.002268400000,  -0.14400,
,,,0.002268800000,  -0.13600,
,,,0.002269200000,  -0.13600,
,,,0.002269600000,  -0.14400,
,,,0.002270000000,  -0.15200,
,,,0.002270400000,  -0.15200,
,,,0.002270800000,  -0.15200,
,,,0.002271200000,  -0.14400,
,,,0.002271600000,  -0.16000,
,,,0.002272000000,  -0.15200,
,,,0.002272400000,  -0.15200,
,,,0.002272800000,  -0.16000,
,,,0.002273200000,  -0.15200,
,,,0.002273600000,  -0.15200,
,,,0.002274000000,  -0.16000,
,,,0.002274400000,  -0.15200,
,,,0.002274800000,  -0.17600,
,,,0.002275200000,  -0.16800,
,,,0.002275600000,  -0.16000,
,,,0.002276000000,  -0.16000,
,,,0.002276400000,  -0.17600,
,,,0.002276800000,  -0.16000,
,,,0.002277200000,  -0.16000,
,,,0.002277600000,  -0.16800,
,,,0.002278000000,  -0.16000,
,,,0.002278400000,  -0.17600,
,,,0.002278800000,  -0.18400,
,,,0.002279200000,  -0.16800,
,,,0.002279600000,  -0.17600,
,,,0.002280000000,  -0.17600,
,,,0.002280400000,  -0.18400,
,,,0.002280800000,  -0.17600,
,,,0.002281200000,  -0.18400,
,,,0.002281600000,  -0.18400,
,,,0.002282000000,  -0.17600,
,,,0.002282400000,  -0.17600,
,,,0.002282800000,  -0.18400,
,,,0.002283200000,  -0.18400,
,,,0.002283600000,  -0.19200,
,,,0.002284000000,  -0.19200,
,,,0.002284400000,  -0.17600,
,,,0.002284800000,  -0.19200,
,,,0.002285200000,  -0.19200,
,,,0.002285600000,  -0.18400,
,,,0.002286000000,  -0.18400,
,,,0.002286400000,  -0.20000,
,,,0.002286800000,  -0.18400,
,,,0.002287200000,  -0.20000,
,,,0.002287600000,  -0.19200,
,,,0.002288000000,  -0.20000,
,,,0.002288400000,  -0.19200,
,,,0.002288800000,  -0.20000,
,,,0.002289200000,  -0.20000,
,,,0.002289600000,  -0.20000,
,,,0.002290000000,  -0.20800,
,,,0.002290400000,  -0.20000,
,,,0.002290800000,  -0.20800,
,,,0.002291200000,  -0.20800,
,,,0.002291600000,  -0.20000,
,,,0.002292000000,  -0.20000,
,,,0.002292400000,  -0.20800,
,,,0.002292800000,  -0.20800,
,,,0.002293200000,  -0.20000,
,,,0.002293600000,  -0.20800,
,,,0.002294000000,  -0.20000,
,,,0.002294400000,  -0.21600,
,,,0.002294800000,  -0.22400,
,,,0.002295200000,  -0.20800,
,,,0.002295600000,  -0.20000,
,,,0.002296000000,  -0.22400,
,,,0.002296400000,  -0.21600,
,,,0.002296800000,  -0.20800,
,,,0.002297200000,  -0.20800,
,,,0.002297600000,  -0.22400,
,,,0.002298000000,  -0.21600,
,,,0.002298400000,  -0.21600,
,,,0.002298800000,  -0.20800,
,,,0.002299200000,  -0.21600,
,,,0.002299600000,  -0.21600,
,,,0.002300000000,  -0.22400,
,,,0.002300400000,  -0.22400,
,,,0.002300800000,  -0.22400,
,,,0.002301200000,  -0.22400,
,,,0.002301600000,  -0.21600,
,,,0.002302000000,  -0.21600,
,,,0.002302400000,  -0.21600,
,,,0.002302800000,  -0.22400,
,,,0.002303200000,  -0.21600,
,,,0.002303600000,  -0.21600,
,,,0.002304000000,  -0.22400,
,,,0.002304400000,  -0.21600,
,,,0.002304800000,  -0.22400,
,,,0.002305200000,  -0.21600,
,,,0.002305600000,  -0.22400,
,,,0.002306000000,  -0.23200,
,,,0.002306400000,  -0.21600,
,,,0.002306800000,  -0.22400,
,,,0.002307200000,  -0.22400,
,,,0.002307600000,  -0.20800,
,,,0.002308000000,  -0.22400,
,,,0.002308400000,  -0.22400,
,,,0.002308800000,  -0.21600,
,,,0.002309200000,  -0.22400,
,,,0.002309600000,  -0.23200,
,,,0.002310000000,  -0.22400,
,,,0.002310400000,  -0.22400,
,,,0.002310800000,  -0.21600,
,,,0.002311200000,  -0.22400,
,,,0.002311600000,  -0.22400,
,,,0.002312000000,  -0.23200,
,,,0.002312400000,  -0.22400,
,,,0.002312800000,  -0.22400,
,,,0.002313200000,  -0.22400,
,,,0.002313600000,  -0.22400,
,,,0.002314000000,  -0.22400,
,,,0.002314400000,  -0.23200,
,,,0.002314800000,  -0.23200,
,,,0.002315200000,  -0.22400,
,,,0.002315600000,  -0.22400,
,,,0.002316000000,  -0.23200,
,,,0.002316400000,  -0.22400,
,,,0.002316800000,  -0.22400,
,,,0.002317200000,  -0.22400,
,,,0.002317600000,  -0.22400,
,,,0.002318000000,  -0.22400,
,,,0.002318400000,  -0.22400,
,,,0.002318800000,  -0.21600,
,,,0.002319200000,  -0.23200,
,,,0.002319600000,  -0.22400,
,,,0.002320000000,  -0.23200,
,,,0.002320400000,  -0.23200,
,,,0.002320800000,  -0.21600,
,,,0.002321200000,  -0.22400,
,,,0.002321600000,  -0.22400,
,,,0.002322000000,  -0.23200,
,,,0.002322400000,  -0.22400,
,,,0.002322800000,  -0.23200,
,,,0.002323200000,  -0.23200,
,,,0.002323600000,  -0.23200,
,,,0.002324000000,  -0.21600,
,,,0.002324400000,  -0.22400,
,,,0.002324800000,  -0.23200,
,,,0.002325200000,  -0.22400,
,,,0.002325600000,  -0.22400,
,,,0.002326000000,  -0.24000,
,,,0.002326400000,  -0.22400,
,,,0.002326800000,  -0.21600,
,,,0.002327200000,  -0.21600,
,,,0.002327600000,  -0.22400,
,,,0.002328000000,  -0.21600,
,,,0.002328400000,  -0.21600,
,,,0.002328800000,  -0.20800,
,,,0.002329200000,  -0.22400,
,,,0.002329600000,  -0.23200,
,,,0.002330000000,  -0.22400,
,,,0.002330400000,  -0.20800,
,,,0.002330800000,  -0.21600,
,,,0.002331200000,  -0.20000,
,,,0.002331600000,  -0.21600,
,,,0.002332000000,  -0.22400,
,,,0.002332400000,  -0.20800,
,,,0.002332800000,  -0.20800,
,,,0.002333200000,  -0.20800,
,,,0.002333600000,  -0.20800,
,,,0.002334000000,  -0.21600,
,,,0.002334400000,  -0.21600,
,,,0.002334800000,  -0.21600,
,,,0.002335200000,  -0.20000,
,,,0.002335600000,  -0.21600,
,,,0.002336000000,  -0.21600,
,,,0.002336400000,  -0.21600,
,,,0.002336800000,  -0.20800,
,,,0.002337200000,  -0.20800,
,,,0.002337600000,  -0.20800,
,,,0.002338000000,  -0.20800,
,,,0.002338400000,  -0.20000,
,,,0.002338800000,  -0.20800,
,,,0.002339200000,  -0.21600,
,,,0.002339600000,  -0.20800,
,,,0.002340000000,  -0.20000,
,,,0.002340400000,  -0.20000,
,,,0.002340800000,  -0.20000,
,,,0.002341200000,  -0.19200,
,,,0.002341600000,  -0.20800,
,,,0.002342000000,  -0.20000,
,,,0.002342400000,  -0.19200,
,,,0.002342800000,  -0.18400,
,,,0.002343200000,  -0.19200,
,,,0.002343600000,  -0.19200,
,,,0.002344000000,  -0.19200,
,,,0.002344400000,  -0.19200,
,,,0.002344800000,  -0.19200,
,,,0.002345200000,  -0.19200,
,,,0.002345600000,  -0.20000,
,,,0.002346000000,  -0.18400,
,,,0.002346400000,  -0.18400,
,,,0.002346800000,  -0.18400,
,,,0.002347200000,  -0.18400,
,,,0.002347600000,  -0.19200,
,,,0.002348000000,  -0.18400,
,,,0.002348400000,  -0.18400,
,,,0.002348800000,  -0.17600,
,,,0.002349200000,  -0.19200,
,,,0.002349600000,  -0.17600,
,,,0.002350000000,  -0.17600,
,,,0.002350400000,  -0.17600,
,,,0.002350800000,  -0.19200,
,,,0.002351200000,  -0.17600,
,,,0.002351600000,  -0.17600,
,,,0.002352000000,  -0.16800,
,,,0.002352400000,  -0.16800,
,,,0.002352800000,  -0.16800,
,,,0.002353200000,  -0.16800,
,,,0.002353600000,  -0.16800,
,,,0.002354000000,  -0.17600,
,,,0.002354400000,  -0.17600,
,,,0.002354800000,  -0.16800,
,,,0.002355200000,  -0.16000,
,,,0.002355600000,  -0.17600,
,,,0.002356000000,  -0.15200,
,,,0.002356400000,  -0.16800,
,,,0.002356800000,  -0.15200,
,,,0.002357200000,  -0.16000,
,,,0.002357600000,  -0.16000,
,,,0.002358000000,  -0.15200,
,,,0.002358400000,  -0.15200,
,,,0.002358800000,  -0.16000,
,,,0.002359200000,  -0.15200,
,,,0.002359600000,  -0.16000,
,,,0.002360000000,  -0.14400,
,,,0.002360400000,  -0.15200,
,,,0.002360800000,  -0.14400,
,,,0.002361200000,  -0.14400,
,,,0.002361600000,  -0.13600,
,,,0.002362000000,  -0.13600,
,,,0.002362400000,  -0.14400,
,,,0.002362800000,  -0.15200,
,,,0.002363200000,  -0.14400,
,,,0.002363600000,  -0.13600,
,,,0.002364000000,  -0.12800,
,,,0.002364400000,  -0.13600,
,,,0.002364800000,  -0.13600,
,,,0.002365200000,  -0.12800,
,,,0.002365600000,  -0.14400,
,,,0.002366000000,  -0.11200,
,,,0.002366400000,  -0.12800,
,,,0.002366800000,  -0.12000,
,,,0.002367200000,  -0.13600,
,,,0.002367600000,  -0.12000,
,,,0.002368000000,  -0.12000,
,,,0.002368400000,  -0.12000,
,,,0.002368800000,  -0.12800,
,,,0.002369200000,  -0.12800,
,,,0.002369600000,  -0.12800,
,,,0.002370000000,  -0.11200,
,,,0.002370400000,  -0.11200,
,,,0.002370800000,  -0.10400,
,,,0.002371200000,  -0.11200,
,,,0.002371600000,  -0.11200,
,,,0.002372000000,  -0.10400,
,,,0.002372400000,  -0.09600,
,,,0.002372800000,  -0.10400,
,,,0.002373200000,  -0.10400,
,,,0.002373600000,  -0.09600,
,,,0.002374000000,  -0.10400,
,,,0.002374400000,  -0.10400,
,,,0.002374800000,  -0.09600,
,,,0.002375200000,  -0.09600,
,,,0.002375600000,  -0.09600,
,,,0.002376000000,  -0.08800,
,,,0.002376400000,  -0.08800,
,,,0.002376800000,  -0.09600,
,,,0.002377200000,  -0.09600,
,,,0.002377600000,  -0.08000,
,,,0.002378000000,  -0.08000,
,,,0.002378400000,  -0.08000,
,,,0.002378800000,  -0.08000,
,,,0.002379200000,  -0.08800,
,,,0.002379600000,  -0.08000,
,,,0.002380000000,  -0.08000,
,,,0.002380400000,  -0.08000,
,,,0.002380800000,  -0.07200,
,,,0.002381200000,  -0.07200,
,,,0.002381600000,  -0.06400,
,,,0.002382000000,  -0.06400,
,,,0.002382400000,  -0.06400,
,,,0.002382800000,  -0.07200,
,,,0.002383200000,  -0.07200,
,,,0.002383600000,  -0.06400,
,,,0.002384000000,  -0.05600,
,,,0.002384400000,  -0.05600,
,,,0.002384800000,  -0.05600,
,,,0.002385200000,  -0.06400,
,,,0.002385600000,  -0.05600,
,,,0.002386000000,  -0.05600,
,,,0.002386400000,  -0.04800,
,,,0.002386800000,  -0.04000,
,,,0.002387200000,  -0.04800,
,,,0.002387600000,  -0.04000,
,,,0.002388000000,  -0.03200,
,,,0.002388400000,  -0.03200,
,,,0.002388800000,  -0.04800,
,,,0.002389200000,  -0.03200,
,,,0.002389600000,  -0.03200,
,,,0.002390000000,  -0.03200,
,,,0.002390400000,  -0.04000,
,,,0.002390800000,  -0.04000,
,,,0.002391200000,  -0.03200,
,,,0.002391600000,  -0.03200,
,,,0.002392000000,  -0.02400,
,,,0.002392400000,  -0.02400,
,,,0.002392800000,  -0.03200,
,,,0.002393200000,  -0.02400,
,,,0.002393600000,  -0.01600,
,,,0.002394000000,  -0.01600,
,,,0.002394400000,  -0.00800,
,,,0.002394800000,  -0.01600,
,,,0.002395200000,  -0.01600,
,,,0.002395600000,  -0.00800,
,,,0.002396000000,  -0.00800,
,,,0.002396400000,  -0.00800,
,,,0.002396800000,  -0.00800,
,,,0.002397200000,   0.00000,
,,,0.002397600000,   0.00000,
,,,0.002398000000,   0.00800,
,,,0.002398400000,   0.00000,
,,,0.002398800000,   0.00000,
,,,0.002399200000,   0.00000,
,,,0.002399600000,   0.00800,
,,,0.002400000000,   0.00800,
,,,0.002400400000,   0.02400,
,,,0.002400800000,   0.00800,
,,,0.002401200000,   0.01600,
,,,0.002401600000,   0.01600,
,,,0.002402000000,   0.00800,
,,,0.002402400000,   0.01600,
,,,0.002402800000,   0.01600,
,,,0.002403200000,   0.02400,
,,,0.002403600000,   0.02400,
,,,0.002404000000,   0.02400,
,,,0.002404400000,   0.02400,
,,,0.002404800000,   0.03200,
,,,0.002405200000,   0.02400,
,,,0.002405600000,   0.04000,
,,,0.002406000000,   0.04000,
,,,0.002406400000,   0.03200,
,,,0.002406800000,   0.02400,
,,,0.002407200000,   0.04800,
,,,0.002407600000,   0.04800,
,,,0.002408000000,   0.04800,
,,,0.002408400000,   0.04000,
,,,0.002408800000,   0.03200,
,,,0.002409200000,   0.05600,
,,,0.002409600000,   0.04800,
,,,0.002410000000,   0.04800,
,,,0.002410400000,   0.05600,
,,,0.002410800000,   0.05600,
,,,0.002411200000,   0.06400,
,,,0.002411600000,   0.05600,
,,,0.002412000000,   0.06400,
,,,0.002412400000,   0.05600,
,,,0.002412800000,   0.05600,
,,,0.002413200000,   0.07200,
,,,0.002413600000,   0.06400,
,,,0.002414000000,   0.07200,
,,,0.002414400000,   0.07200,
,,,0.002414800000,   0.06400,
,,,0.002415200000,   0.07200,
,,,0.002415600000,   0.07200,
,,,0.002416000000,   0.07200,
,,,0.002416400000,   0.08000,
,,,0.002416800000,   0.08000,
,,,0.002417200000,   0.08800,
,,,0.002417600000,   0.08800,
,,,0.002418000000,   0.08000,
,,,0.002418400000,   0.08000,
,,,0.002418800000,   0.08000,
,,,0.002419200000,   0.08800,
,,,0.002419600000,   0.09600,
,,,0.002420000000,   0.08800,
,,,0.002420400000,   0.08800,
,,,0.002420800000,   0.09600,
,,,0.002421200000,   0.10400,
,,,0.002421600000,   0.09600,
,,,0.002422000000,   0.10400,
,,,0.002422400000,   0.09600,
,,,0.002422800000,   0.10400,
,,,0.002423200000,   0.11200,
,,,0.002423600000,   0.11200,
,,,0.002424000000,   0.10400,
,,,0.002424400000,   0.11200,
,,,0.002424800000,   0.11200,
,,,0.002425200000,   0.11200,
,,,0.002425600000,   0.11200,
,,,0.002426000000,   0.12000,
,,,0.002426400000,   0.12000,
,,,0.002426800000,   0.12800,
,,,0.002427200000,   0.12000,
,,,0.002427600000,   0.12000,
,,,0.002428000000,   0.13600,
,,,0.002428400000,   0.12000,
,,,0.002428800000,   0.12800,
,,,0.002429200000,   0.12800,
,,,0.002429600000,   0.13600,
,,,0.002430000000,   0.12000,
,,,0.002430400000,   0.13600,
,,,0.002430800000,   0.13600,
,,,0.002431200000,   0.14400,
,,,0.002431600000,   0.13600,
,,,0.002432000000,   0.13600,
,,,0.002432400000,   0.13600,
,,,0.002432800000,   0.13600,
,,,0.002433200000,   0.13600,
,,,0.002433600000,   0.14400,
,,,0.002434000000,   0.14400,
,,,0.002434400000,   0.14400,
,,,0.002434800000,   0.15200,
,,,0.002435200000,   0.16000,
,,,0.002435600000,   0.14400,
,,,0.002436000000,   0.15200,
,,,0.002436400000,   0.15200,
,,,0.002436800000,   0.16000,
,,,0.002437200000,   0.16000,
,,,0.002437600000,   0.16000,
,,,0.002438000000,   0.16000,
,,,0.002438400000,   0.16000,
,,,0.002438800000,   0.16800,
,,,0.002439200000,   0.16800,
,,,0.002439600000,   0.16000,
,,,0.002440000000,   0.16800,
,,,0.002440400000,   0.16800,
,,,0.002440800000,   0.17600,
,,,0.002441200000,   0.17600,
,,,0.002441600000,   0.16800,
,,,0.002442000000,   0.16000,
,,,0.002442400000,   0.16800,
,,,0.002442800000,   0.17600,
,,,0.002443200000,   0.17600,
,,,0.002443600000,   0.17600,
,,,0.002444000000,   0.17600,
,,,0.002444400000,   0.17600,
,,,0.002444800000,   0.18400,
,,,0.002445200000,   0.19200,
,,,0.002445600000,   0.18400,
,,,0.002446000000,   0.18400,
,,,0.002446400000,   0.17600,
,,,0.002446800000,   0.19200,
,,,0.002447200000,   0.19200,
,,,0.002447600000,   0.18400,
,,,0.002448000000,   0.18400,
,,,0.002448400000,   0.19200,
,,,0.002448800000,   0.19200,
,,,0.002449200000,   0.19200,
,,,0.002449600000,   0.18400,
,,,0.002450000000,   0.20000,
,,,0.002450400000,   0.19200,
,,,0.002450800000,   0.20000,
,,,0.002451200000,   0.19200,
,,,0.002451600000,   0.20000,
,,,0.002452000000,   0.19200,
,,,0.002452400000,   0.20000,
,,,0.002452800000,   0.20800,
,,,0.002453200000,   0.20000,
,,,0.002453600000,   0.20800,
,,,0.002454000000,   0.20800,
,,,0.002454400000,   0.19200,
,,,0.002454800000,   0.20800,
,,,0.002455200000,   0.20800,
,,,0.002455600000,   0.19200,
,,,0.002456000000,   0.20800,
,,,0.002456400000,   0.20800,
,,,0.002456800000,   0.21600,
,,,0.002457200000,   0.21600,
,,,0.002457600000,   0.20000,
,,,0.002458000000,   0.20800,
,,,0.002458400000,   0.20800,
,,,0.002458800000,   0.21600,
,,,0.002459200000,   0.20800,
,,,0.002459600000,   0.21600,
,,,0.002460000000,   0.20800,
,,,0.002460400000,   0.20800,
,,,0.002460800000,   0.21600,
,,,0.002461200000,   0.21600,
,,,0.002461600000,   0.21600,
,,,0.002462000000,   0.21600,
,,,0.002462400000,   0.20800,
,,,0.002462800000,   0.21600,
,,,0.002463200000,   0.22400,
,,,0.002463600000,   0.22400,
,,,0.002464000000,   0.22400,
,,,0.002464400000,   0.22400,
,,,0.002464800000,   0.22400,
,,,0.002465200000,   0.21600,
,,,0.002465600000,   0.21600,
,,,0.002466000000,   0.22400,
,,,0.002466400000,   0.22400,
,,,0.002466800000,   0.22400,
,,,0.002467200000,   0.23200,
,,,0.002467600000,   0.23200,
,,,0.002468000000,   0.22400,
,,,0.002468400000,   0.22400,
,,,0.002468800000,   0.23200,
,,,0.002469200000,   0.22400,
,,,0.002469600000,   0.21600,
,,,0.002470000000,   0.22400,
,,,0.002470400000,   0.23200,
,,,0.002470800000,   0.24000,
,,,0.002471200000,   0.22400,
,,,0.002471600000,   0.23200,
,,,0.002472000000,   0.22400,
,,,0.002472400000,   0.23200,
,,,0.002472800000,   0.22400,
,,,0.002473200000,   0.22400,
,,,0.002473600000,   0.23200,
,,,0.002474000000,   0.23200,
,,,0.002474400000,   0.23200,
,,,0.002474800000,   0.23200,
,,,0.002475200000,   0.23200,
,,,0.002475600000,   0.23200,
,,,0.002476000000,   0.22400,
,,,0.002476400000,   0.24000,
,,,0.002476800000,   0.22400,
,,,0.002477200000,   0.24000,
,,,0.002477600000,   0.24000,
,,,0.002478000000,   0.23200,
,,,0.002478400000,   0.23200,
,,,0.002478800000,   0.22400,
,,,0.002479200000,   0.23200,
,,,0.002479600000,   0.23200,
,,,0.002480000000,   0.24000,
,,,0.002480400000,   0.23200,
,,,0.002480800000,   0.23200,
,,,0.002481200000,   0.23200,
,,,0.002481600000,   0.23200,
,,,0.002482000000,   0.23200,
,,,0.002482400000,   0.24000,
,,,0.002482800000,   0.22400,
,,,0.002483200000,   0.22400,
,,,0.002483600000,   0.24800,
,,,0.002484000000,   0.23200,
,,,0.002484400000,   0.23200,
,,,0.002484800000,   0.24000,
,,,0.002485200000,   0.23200,
,,,0.002485600000,   0.23200,
,,,0.002486000000,   0.23200,
,,,0.002486400000,   0.24000,
,,,0.002486800000,   0.23200,
,,,0.002487200000,   0.24000,
,,,0.002487600000,   0.22400,
,,,0.002488000000,   0.23200,
,,,0.002488400000,   0.23200,
,,,0.002488800000,   0.22400,
,,,0.002489200000,   0.22400,
,,,0.002489600000,   0.23200,
,,,0.002490000000,   0.23200,
,,,0.002490400000,   0.23200,
,,,0.002490800000,   0.22400,
,,,0.002491200000,   0.23200,
,,,0.002491600000,   0.23200,
,,,0.002492000000,   0.23200,
,,,0.002492400000,   0.23200,
,,,0.002492800000,   0.22400,
,,,0.002493200000,   0.22400,
,,,0.002493600000,   0.23200,
,,,0.002494000000,   0.22400,
,,,0.002494400000,   0.23200,
,,,0.002494800000,   0.23200,
,,,0.002495200000,   0.22400,
,,,0.002495600000,   0.23200,
,,,0.002496000000,   0.21600,
,,,0.002496400000,   0.23200,
,,,0.002496800000,   0.22400,
,,,0.002497200000,   0.22400,
,,,0.002497600000,   0.22400,
,,,0.002498000000,   0.21600,
,,,0.002498400000,   0.21600,
,,,0.002498800000,   0.22400,
,,,0.002499200000,   0.22400,
,,,0.002499600000,   0.22400,
,,,0.002500000000,   0.22400,
,,,0.002500400000,   0.22400,
,,,0.002500800000,   0.22400,
,,,0.002501200000,   0.22400,
,,,0.002501600000,   0.21600,
,,,0.002502000000,   0.21600,
,,,0.002502400000,   0.21600,
,,,0.002502800000,   0.21600,
,,,0.002503200000,   0.21600,
,,,0.002503600000,   0.21600,
,,,0.002504000000,   0.21600,
,,,0.002504400000,   0.20800,
,,,0.002504800000,   0.20800,
,,,0.002505200000,   0.20800,
,,,0.002505600000,   0.20800,
,,,0.002506000000,   0.20800,
,,,0.002506400000,   0.21600,
,,,0.002506800000,   0.20800,
,,,0.002507200000,   0.20000,
,,,0.002507600000,   0.20800,
,,,0.002508000000,   0.20000,
,,,0.002508400000,   0.21600,
,,,0.002508800000,   0.20800,
,,,0.002509200000,   0.19200,
,,,0.002509600000,   0.20800,
,,,0.002510000000,   0.20000,
,,,0.002510400000,   0.20800,
,,,0.002510800000,   0.20000,
,,,0.002511200000,   0.20800,
,,,0.002511600000,   0.20000,
,,,0.002512000000,   0.20000,
,,,0.002512400000,   0.19200,
,,,0.002512800000,   0.19200,
,,,0.002513200000,   0.19200,
,,,0.002513600000,   0.20000,
,,,0.002514000000,   0.19200,
,,,0.002514400000,   0.19200,
,,,0.002514800000,   0.19200,
,,,0.002515200000,   0.19200,
,,,0.002515600000,   0.19200,
,,,0.002516000000,   0.19200,
,,,0.002516400000,   0.19200,
,,,0.002516800000,   0.18400,
,,,0.002517200000,   0.17600,
,,,0.002517600000,   0.18400,
,,,0.002518000000,   0.18400,
,,,0.002518400000,   0.17600,
,,,0.002518800000,   0.17600,
,,,0.002519200000,   0.18400,
,,,0.002519600000,   0.17600,
,,,0.002520000000,   0.18400,
,,,0.002520400000,   0.16800,
,,,0.002520800000,   0.17600,
,,,0.002521200000,   0.16800,
,,,0.002521600000,   0.16000,
,,,0.002522000000,   0.16800,
,,,0.002522400000,   0.16800,
,,,0.002522800000,   0.15200,
,,,0.002523200000,   0.16800,
,,,0.002523600000,   0.16800,
,,,0.002524000000,   0.16000,
,,,0.002524400000,   0.16800,
,,,0.002524800000,   0.15200,
,,,0.002525200000,   0.16800,
,,,0.002525600000,   0.15200,
,,,0.002526000000,   0.16000,
,,,0.002526400000,   0.16000,
,,,0.002526800000,   0.16000,
,,,0.002527200000,   0.15200,
,,,0.002527600000,   0.15200,
,,,0.002528000000,   0.15200,
,,,0.002528400000,   0.16000,
,,,0.002528800000,   0.14400,
,,,0.002529200000,   0.15200,
,,,0.002529600000,   0.15200,
,,,0.002530000000,   0.14400,
,,,0.002530400000,   0.13600,
,,,0.002530800000,   0.14400,
,,,0.002531200000,   0.14400,
,,,0.002531600000,   0.14400,
,,,0.002532000000,   0.12800,
,,,0.002532400000,   0.13600,
,,,0.002532800000,   0.12800,
,,,0.002533200000,   0.14400,
,,,0.002533600000,   0.12800,
,,,0.002534000000,   0.13600,
,,,0.002534400000,   0.12800,
,,,0.002534800000,   0.12800,
,,,0.002535200000,   0.12800,
,,,0.002535600000,   0.12800,
,,,0.002536000000,   0.12800,
,,,0.002536400000,   0.12000,
,,,0.002536800000,   0.12800,
,,,0.002537200000,   0.12000,
,,,0.002537600000,   0.11200,
,,,0.002538000000,   0.11200,
,,,0.002538400000,   0.11200,
,,,0.002538800000,   0.11200,
,,,0.002539200000,   0.12000,
,,,0.002539600000,   0.11200,
,,,0.002540000000,   0.11200,
,,,0.002540400000,   0.11200,
,,,0.002540800000,   0.10400,
,,,0.002541200000,   0.09600,
,,,0.002541600000,   0.10400,
,,,0.002542000000,   0.10400,
,,,0.002542400000,   0.09600,
,,,0.002542800000,   0.09600,
,,,0.002543200000,   0.08800,
,,,0.002543600000,   0.09600,
,,,0.002544000000,   0.09600,
,,,0.002544400000,   0.08800,
,,,0.002544800000,   0.08800,
,,,0.002545200000,   0.08800,
,,,0.002545600000,   0.08000,
,,,0.002546000000,   0.08800,
,,,0.002546400000,   0.08800,
,,,0.002546800000,   0.08800,
,,,0.002547200000,   0.08000,
,,,0.002547600000,   0.07200,
,,,0.002548000000,   0.08000,
,,,0.002548400000,   0.07200,
,,,0.002548800000,   0.05600,
,,,0.002549200000,   0.07200,
,,,0.002549600000,   0.07200,
,,,0.002550000000,   0.06400,
,,,0.002550400000,   0.05600,
,,,0.002550800000,   0.06400,
,,,0.002551200000,   0.07200,
,,,0.002551600000,   0.06400,
,,,0.002552000000,   0.05600,
,,,0.002552400000,   0.05600,
,,,0.002552800000,   0.05600,
,,,0.002553200000,   0.06400,
,,,0.002553600000,   0.04000,
,,,0.002554000000,   0.04800,
,,,0.002554400000,   0.04800,
,,,0.002554800000,   0.04800,
,,,0.002555200000,   0.05600,
,,,0.002555600000,   0.05600,
,,,0.002556000000,   0.04800,
,,,0.002556400000,   0.04800,
,,,0.002556800000,   0.04000,
,,,0.002557200000,   0.04000,
,,,0.002557600000,   0.03200,
,,,0.002558000000,   0.03200,
,,,0.002558400000,   0.02400,
,,,0.002558800000,   0.04000,
,,,0.002559200000,   0.03200,
,,,0.002559600000,   0.02400,
,,,0.002560000000,   0.03200,
,,,0.002560400000,   0.01600,
,,,0.002560800000,   0.02400,
,,,0.002561200000,   0.01600,
,,,0.002561600000,   0.03200,
,,,0.002562000000,   0.01600,
,,,0.002562400000,   0.00800,
,,,0.002562800000,   0.01600,
,,,0.002563200000,   0.00800,
,,,0.002563600000,   0.00000,
,,,0.002564000000,   0.00800,
,,,0.002564400000,   0.00800,
,,,0.002564800000,   0.00800,
,,,0.002565200000,   0.00000,
,,,0.002565600000,   0.00800,
,,,0.002566000000,   0.00800,
,,,0.002566400000,   0.00000,
,,,0.002566800000,  -0.00800,
,,,0.002567200000,  -0.00800,
,,,0.002567600000,  -0.01600,
,,,0.002568000000,  -0.01600,
,,,0.002568400000,  -0.00800,
,,,0.002568800000,   0.00000,
,,,0.002569200000,  -0.01600,
,,,0.002569600000,  -0.01600,
,,,0.002570000000,  -0.02400,
,,,0.002570400000,  -0.02400,
,,,0.002570800000,  -0.02400,
,,,0.002571200000,  -0.01600,
,,,0.002571600000,  -0.02400,
,,,0.002572000000,  -0.03200,
,,,0.002572400000,  -0.03200,
,,,0.002572800000,  -0.02400,
,,,0.002573200000,  -0.03200,
,,,0.002573600000,  -0.04000,
,,,0.002574000000,  -0.04000,
,,,0.002574400000,  -0.03200,
,,,0.002574800000,  -0.04000,
,,,0.002575200000,  -0.04800,
,,,0.002575600000,  -0.03200,
,,,0.002576000000,  -0.03200,
,,,0.002576400000,  -0.04800,
,,,0.002576800000,  -0.04800,
,,,0.002577200000,  -0.05600,
,,,0.002577600000,  -0.04800,
,,,0.002578000000,  -0.04800,
,,,0.002578400000,  -0.05600,
,,,0.002578800000,  -0.05600,
,,,0.002579200000,  -0.04800,
,,,0.002579600000,  -0.06400,
,,,0.002580000000,  -0.05600,
,,,0.002580400000,  -0.05600,
,,,0.002580800000,  -0.06400,
,,,0.002581200000,  -0.06400,
,,,0.002581600000,  -0.07200,
,,,0.002582000000,  -0.07200,
,,,0.002582400000,  -0.06400,
,,,0.002582800000,  -0.06400,
,,,0.002583200000,  -0.07200,
,,,0.002583600000,  -0.07200,
,,,0.002584000000,  -0.07200,
,,,0.002584400000,  -0.08000,
,,,0.002584800000,  -0.07200,
,,,0.002585200000,  -0.08000,
,,,0.002585600000,  -0.08800,
,,,0.002586000000,  -0.08800,
,,,0.002586400000,  -0.08800,
,,,0.002586800000,  -0.08800,
,,,0.002587200000,  -0.08000,
,,,0.002587600000,  -0.08800,
,,,0.002588000000,  -0.08800,
,,,0.002588400000,  -0.10400,
,,,0.002588800000,  -0.08800,
,,,0.002589200000,  -0.08800,
,,,0.002589600000,  -0.09600,
,,,0.002590000000,  -0.10400,
,,,0.002590400000,  -0.10400,
,,,0.002590800000,  -0.10400,
,,,0.002591200000,  -0.10400,
,,,0.002591600000,  -0.11200,
,,,0.002592000000,  -0.11200,
,,,0.002592400000,  -0.11200,
,,,0.002592800000,  -0.10400,
,,,0.002593200000,  -0.12800,
,,,0.002593600000,  -0.10400,
,,,0.002594000000,  -0.11200,
,,,0.002594400000,  -0.11200,
,,,0.002594800000,  -0.12000,
,,,0.002595200000,  -0.10400,
,,,0.002595600000,  -0.12000,
,,,0.002596000000,  -0.11200,
,,,0.002596400000,  -0.12800,
,,,0.002596800000,  -0.12000,
,,,0.002597200000,  -0.12800,
,,,0.002597600000,  -0.12800,
,,,0.002598000000,  -0.12800,
,,,0.002598400000,  -0.12800,
,,,0.002598800000,  -0.12000,
,,,0.002599200000,  -0.13600,
,,,0.002599600000,  -0.12800,
,,,0.002600000000,  -0.13600,
,,,0.002600400000,  -0.13600,
,,,0.002600800000,  -0.14400,
,,,0.002601200000,  -0.12800,
,,,0.002601600000,  -0.15200,
,,,0.002602000000,  -0.15200,
,,,0.002602400000,  -0.14400,
,,,0.002602800000,  -0.15200,
,,,0.002603200000,  -0.16000,
,,,0.002603600000,  -0.15200,
,,,0.002604000000,  -0.15200,
,,,0.002604400000,  -0.14400,
,,,0.002604800000,  -0.15200,
,,,0.002605200000,  -0.15200,
,,,0.002605600000,  -0.15200,
,,,0.002606000000,  -0.15200,
,,,0.002606400000,  -0.16000,
,,,0.002606800000,  -0.15200,
,,,0.002607200000,  -0.16000,
,,,0.002607600000,  -0.16000,
,,,0.002608000000,  -0.16000,
,,,0.002608400000,  -0.16000,
,,,0.002608800000,  -0.16000,
,,,0.002609200000,  -0.16000,
,,,0.002609600000,  -0.17600,
,,,0.002610000000,  -0.16800,
,,,0.002610400000,  -0.16800,
,,,0.002610800000,  -0.16800,
,,,0.002611200000,  -0.17600,
,,,0.002611600000,  -0.18400,
,,,0.002612000000,  -0.17600,
,,,0.002612400000,  -0.16800,
,,,0.002612800000,  -0.18400,
,,,0.002613200000,  -0.19200,
,,,0.002613600000,  -0.18400,
,,,0.002614000000,  -0.17600,
,,,0.002614400000,  -0.17600,
,,,0.002614800000,  -0.17600,
,,,0.002615200000,  -0.18400,
,,,0.002615600000,  -0.18400,
,,,0.002616000000,  -0.18400,
,,,0.002616400000,  -0.19200,
,,,0.002616800000,  -0.18400,
,,,0.002617200000,  -0.18400,
,,,0.002617600000,  -0.18400,
,,,0.002618000000,  -0.19200,
,,,0.002618400000,  -0.19200,
,,,0.002618800000,  -0.19200,
,,,0.002619200000,  -0.19200,
,,,0.002619600000,  -0.20000,
,,,0.002620000000,  -0.18400,
,,,0.002620400000,  -0.19200,
,,,0.002620800000,  -0.20000,
,,,0.002621200000,  -0.19200,
,,,0.002621600000,  -0.19200,
,,,0.002622000000,  -0.20000,
,,,0.002622400000,  -0.20000,
,,,0.002622800000,  -0.20800,
,,,0.002623200000,  -0.20000,
,,,0.002623600000,  -0.20000,
,,,0.002624000000,  -0.20800,
,,,0.002624400000,  -0.20000,
,,,0.002624800000,  -0.20000,
,,,0.002625200000,  -0.19200,
,,,0.002625600000,  -0.20000,
,,,0.002626000000,  -0.20000,
,,,0.002626400000,  -0.20800,
,,,0.002626800000,  -0.20800,
,,,0.002627200000,  -0.20800,
,,,0.002627600000,  -0.20800,
,,,0.002628000000,  -0.21600,
,,,0.002628400000,  -0.20800,
,,,0.002628800000,  -0.20800,
,,,0.002629200000,  -0.20800,
,,,0.002629600000,  -0.21600,
,,,0.002630000000,  -0.21600,
,,,0.002630400000,  -0.20800,
,,,0.002630800000,  -0.20800,
,,,0.002631200000,  -0.22400,
,,,0.002631600000,  -0.22400,
,,,0.002632000000,  -0.20800,
,,,0.002632400000,  -0.20800,
,,,0.002632800000,  -0.22400,
,,,0.002633200000,  -0.21600,
,,,0.002633600000,  -0.21600,
,,,0.002634000000,  -0.21600,
,,,0.002634400000,  -0.21600,
,,,0.002634800000,  -0.20800,
,,,0.002635200000,  -0.21600,
,,,0.002635600000,  -0.21600,
,,,0.002636000000,  -0.21600,
,,,0.002636400000,  -0.21600,
,,,0.002636800000,  -0.21600,
,,,0.002637200000,  -0.21600,
,,,0.002637600000,  -0.21600,
,,,0.002638000000,  -0.22400,
,,,0.002638400000,  -0.21600,
,,,0.002638800000,  -0.22400,
,,,0.002639200000,  -0.22400,
,,,0.002639600000,  -0.23200,
,,,0.002640000000,  -0.23200,
,,,0.002640400000,  -0.22400,
,,,0.002640800000,  -0.22400,
,,,0.002641200000,  -0.22400,
,,,0.002641600000,  -0.22400,
,,,0.002642000000,  -0.21600,
,,,0.002642400000,  -0.22400,
,,,0.002642800000,  -0.23200,
,,,0.002643200000,  -0.22400,
,,,0.002643600000,  -0.21600,
,,,0.002644000000,  -0.22400,
,,,0.002644400000,  -0.23200,
,,,0.002644800000,  -0.22400,
,,,0.002645200000,  -0.22400,
,,,0.002645600000,  -0.22400,
,,,0.002646000000,  -0.23200,
,,,0.002646400000,  -0.23200,
,,,0.002646800000,  -0.24000,
,,,0.002647200000,  -0.22400,
,,,0.002647600000,  -0.21600,
,,,0.002648000000,  -0.22400,
,,,0.002648400000,  -0.23200,
,,,0.002648800000,  -0.21600,
,,,0.002649200000,  -0.23200,
,,,0.002649600000,  -0.22400,
,,,0.002650000000,  -0.22400,
,,,0.002650400000,  -0.22400,
,,,0.002650800000,  -0.23200,
,,,0.002651200000,  -0.23200,
,,,0.002651600000,  -0.22400,
,,,0.002652000000,  -0.21600,
,,,0.002652400000,  -0.23200,
,,,0.002652800000,  -0.23200,
,,,0.002653200000,  -0.22400,
,,,0.002653600000,  -0.23200,
,,,0.002654000000,  -0.22400,
,,,0.002654400000,  -0.22400,
,,,0.002654800000,  -0.22400,
,,,0.002655200000,  -0.22400,
,,,0.002655600000,  -0.22400,
,,,0.002656000000,  -0.23200,
,,,0.002656400000,  -0.23200,
,,,0.002656800000,  -0.21600,
,,,0.002657200000,  -0.22400,
,,,0.002657600000,  -0.22400,
,,,0.002658000000,  -0.22400,
,,,0.002658400000,  -0.21600,
,,,0.002658800000,  -0.21600,
,,,0.002659200000,  -0.22400,
,,,0.002659600000,  -0.21600,
,,,0.002660000000,  -0.20800,
,,,0.002660400000,  -0.21600,
,,,0.002660800000,  -0.22400,
,,,0.002661200000,  -0.21600,
,,,0.002661600000,  -0.22400,
,,,0.002662000000,  -0.22400,
,,,0.002662400000,  -0.22400,
,,,0.002662800000,  -0.21600,
,,,0.002663200000,  -0.22400,
,,,0.002663600000,  -0.21600,
,,,0.002664000000,  -0.20800,
,,,0.002664400000,  -0.20800,
,,,0.002664800000,  -0.20800,
,,,0.002665200000,  -0.20800,
,,,0.002665600000,  -0.20800,
,,,0.002666000000,  -0.20800,
,,,0.002666400000,  -0.20000,
,,,0.002666800000,  -0.21600,
,,,0.002667200000,  -0.21600,
,,,0.002667600000,  -0.22400,
,,,0.002668000000,  -0.20800,
,,,0.002668400000,  -0.20800,
,,,0.002668800000,  -0.20800,
,,,0.002669200000,  -0.20800,
,,,0.002669600000,  -0.20800,
,,,0.002670000000,  -0.20800,
,,,0.002670400000,  -0.20000,
,,,0.002670800000,  -0.21600,
,,,0.002671200000,  -0.20800,
,,,0.002671600000,  -0.20000,
,,,0.002672000000,  -0.19200,
,,,0.002672400000,  -0.21600,
,,,0.002672800000,  -0.20000,
,,,0.002673200000,  -0.20000,
,,,0.002673600000,  -0.20000,
,,,0.002674000000,  -0.20000,
,,,0.002674400000,  -0.20000,
,,,0.002674800000,  -0.20000,
,,,0.002675200000,  -0.20000,
,,,0.002675600000,  -0.20000,
,,,0.002676000000,  -0.19200,
,,,0.002676400000,  -0.20000,
,,,0.002676800000,  -0.20000,
,,,0.002677200000,  -0.20000,
,,,0.002677600000,  -0.18400,
,,,0.002678000000,  -0.18400,
,,,0.002678400000,  -0.19200,
,,,0.002678800000,  -0.18400,
,,,0.002679200000,  -0.18400,
,,,0.002679600000,  -0.19200,
,,,0.002680000000,  -0.20000,
,,,0.002680400000,  -0.19200,
,,,0.002680800000,  -0.18400,
,,,0.002681200000,  -0.18400,
,,,0.002681600000,  -0.18400,
,,,0.002682000000,  -0.18400,
,,,0.002682400000,  -0.18400,
,,,0.002682800000,  -0.17600,
,,,0.002683200000,  -0.18400,
,,,0.002683600000,  -0.17600,
,,,0.002684000000,  -0.18400,
,,,0.002684400000,  -0.16800,
,,,0.002684800000,  -0.17600,
,,,0.002685200000,  -0.16000,
,,,0.002685600000,  -0.18400,
,,,0.002686000000,  -0.17600,
,,,0.002686400000,  -0.17600,
,,,0.002686800000,  -0.16800,
,,,0.002687200000,  -0.16800,
,,,0.002687600000,  -0.16800,
,,,0.002688000000,  -0.16800,
,,,0.002688400000,  -0.16000,
,,,0.002688800000,  -0.16000,
,,,0.002689200000,  -0.16000,
,,,0.002689600000,  -0.16000,
,,,0.002690000000,  -0.16800,
,,,0.002690400000,  -0.16800,
,,,0.002690800000,  -0.16000,
,,,0.002691200000,  -0.15200,
,,,0.002691600000,  -0.15200,
,,,0.002692000000,  -0.15200,
,,,0.002692400000,  -0.16000,
,,,0.002692800000,  -0.14400,
,,,0.002693200000,  -0.15200,
,,,0.002693600000,  -0.14400,
,,,0.002694000000,  -0.15200,
,,,0.002694400000,  -0.13600,
,,,0.002694800000,  -0.14400,
,,,0.002695200000,  -0.15200,
,,,0.002695600000,  -0.15200,
,,,0.002696000000,  -0.15200,
,,,0.002696400000,  -0.12800,
,,,0.002696800000,  -0.14400,
,,,0.002697200000,  -0.13600,
,,,0.002697600000,  -0.13600,
,,,0.002698000000,  -0.14400,
,,,0.002698400000,  -0.12800,
,,,0.002698800000,  -0.13600,
,,,0.002699200000,  -0.12000,
,,,0.002699600000,  -0.12800,
,,,0.002700000000,  -0.12800,
,,,0.002700400000,  -0.12800,
,,,0.002700800000,  -0.12000,
,,,0.002701200000,  -0.12800,
,,,0.002701600000,  -0.12800,
,,,0.002702000000,  -0.12800,
,,,0.002702400000,  -0.12000,
,,,0.002702800000,  -0.11200,
,,,0.002703200000,  -0.12000,
,,,0.002703600000,  -0.12000,
,,,0.002704000000,  -0.12000,
,,,0.002704400000,  -0.11200,
,,,0.002704800000,  -0.11200,
,,,0.002705200000,  -0.11200,
,,,0.002705600000,  -0.10400,
,,,0.002706000000,  -0.10400,
,,,0.002706400000,  -0.09600,
,,,0.002706800000,  -0.09600,
,,,0.002707200000,  -0.11200,
,,,0.002707600000,  -0.10400,
,,,0.002708000000,  -0.09600,
,,,0.002708400000,  -0.09600,
,,,0.002708800000,  -0.09600,
,,,0.002709200000,  -0.08800,
,,,0.002709600000,  -0.09600,
,,,0.002710000000,  -0.08800,
,,,0.002710400000,  -0.08800,
,,,0.002710800000,  -0.08800,
,,,0.002711200000,  -0.08000,
,,,0.002711600000,  -0.08800,
,,,0.002712000000,  -0.09600,
,,,0.002712400000,  -0.07200,
,,,0.002712800000,  -0.07200,
,,,0.002713200000,  -0.07200,
,,,0.002713600000,  -0.06400,
,,,0.002714000000,  -0.07200,
,,,0.002714400000,  -0.07200,
,,,0.002714800000,  -0.05600,
,,,0.002715200000,  -0.07200,
,,,0.002715600000,  -0.06400,
,,,0.002716000000,  -0.07200,
,,,0.002716400000,  -0.06400,
,,,0.002716800000,  -0.06400,
,,,0.002717200000,  -0.06400,
,,,0.002717600000,  -0.06400,
,,,0.002718000000,  -0.05600,
,,,0.002718400000,  -0.04800,
,,,0.002718800000,  -0.05600,
,,,0.002719200000,  -0.05600,
,,,0.002719600000,  -0.05600,
,,,0.002720000000,  -0.04000,
,,,0.002720400000,  -0.05600,
,,,0.002720800000,  -0.04800,
,,,0.002721200000,  -0.04000,
,,,0.002721600000,  -0.04000,
,,,0.002722000000,  -0.04800,
,,,0.002722400000,  -0.03200,
,,,0.002722800000,  -0.04000,
,,,0.002723200000,  -0.04000,
,,,0.002723600000,  -0.04000,
,,,0.002724000000,  -0.02400,
,,,0.002724400000,  -0.02400,
,,,0.002724800000,  -0.02400,
,,,0.002725200000,  -0.04000,
,,,0.002725600000,  -0.03200,
,,,0.002726000000,  -0.02400,
,,,0.002726400000,  -0.02400,
,,,0.002726800000,  -0.02400,
,,,0.002727200000,  -0.00800,
,,,0.002727600000,  -0.01600,
,,,0.002728000000,  -0.00800,
,,,0.002728400000,  -0.01600,
,,,0.002728800000,  -0.01600,
,,,0.002729200000,  -0.01600,
,,,0.002729600000,   0.00000,
,,,0.002730000000,  -0.00800,
,,,0.002730400000,  -0.01600,
,,,0.002730800000,  -0.00800,
,,,0.002731200000,   0.00000,
,,,0.002731600000,  -0.00800,
,,,0.002732000000,   0.00000,
,,,0.002732400000,   0.00000,
,,,0.002732800000,   0.00800,
,,,0.002733200000,   0.01600,
,,,0.002733600000,   0.00000,
,,,0.002734000000,   0.02400,
,,,0.002734400000,   0.00800,
,,,0.002734800000,   0.00800,
,,,0.002735200000,   0.01600,
,,,0.002735600000,   0.01600,
,,,0.002736000000,   0.01600,
,,,0.002736400000,   0.01600,
,,,0.002736800000,   0.01600,
,,,0.002737200000,   0.02400,
,,,0.002737600000,   0.02400,
,,,0.002738000000,   0.03200,
,,,0.002738400000,   0.03200,
,,,0.002738800000,   0.03200,
,,,0.002739200000,   0.03200,
,,,0.002739600000,   0.04000,
,,,0.002740000000,   0.04000,
,,,0.002740400000,   0.04000,
,,,0.002740800000,   0.03200,
,,,0.002741200000,   0.04800,
,,,0.002741600000,   0.04800,
,,,0.002742000000,   0.04800,
,,,0.002742400000,   0.05600,
,,,0.002742800000,   0.04800,
,,,0.002743200000,   0.05600,
,,,0.002743600000,   0.05600,
,,,0.002744000000,   0.05600,
,,,0.002744400000,   0.05600,
,,,0.002744800000,   0.05600,
,,,0.002745200000,   0.06400,
,,,0.002745600000,   0.05600,
,,,0.002746000000,   0.07200,
,,,0.002746400000,   0.05600,
,,,0.002746800000,   0.06400,
,,,0.002747200000,   0.07200,
,,,0.002747600000,   0.07200,
,,,0.002748000000,   0.06400,
,,,0.002748400000,   0.07200,
,,,0.002748800000,   0.08000,
,,,0.002749200000,   0.08000,
,,,0.002749600000,   0.08000,
,,,0.002750000000,   0.08000,
,,,0.002750400000,   0.07200,
,,,0.002750800000,   0.08000,
,,,0.002751200000,   0.09600,
,,,0.002751600000,   0.08000,
,,,0.002752000000,   0.09600,
,,,0.002752400000,   0.09600,
,,,0.002752800000,   0.08800,
,,,0.002753200000,   0.08800,
,,,0.002753600000,   0.09600,
,,,0.002754000000,   0.10400,
,,,0.002754400000,   0.09600,
,,,0.002754800000,   0.09600,
,,,0.002755200000,   0.09600,
,,,0.002755600000,   0.10400,
,,,0.002756000000,   0.10400,
,,,0.002756400000,   0.09600,
,,,0.002756800000,   0.10400,
,,,0.002757200000,   0.10400,
,,,0.002757600000,   0.12000,
,,,0.002758000000,   0.10400,
,,,0.002758400000,   0.10400,
,,,0.002758800000,   0.11200,
,,,0.002759200000,   0.11200,
,,,0.002759600000,   0.12000,
,,,0.002760000000,   0.11200,
,,,0.002760400000,   0.10400,
,,,0.002760800000,   0.12000,
,,,0.002761200000,   0.12000,
,,,0.002761600000,   0.12000,
,,,0.002762000000,   0.12800,
,,,0.002762400000,   0.12800,
,,,0.002762800000,   0.13600,
,,,0.002763200000,   0.12800,
,,,0.002763600000,   0.13600,
,,,0.002764000000,   0.14400,
,,,0.002764400000,   0.13600,
,,,0.002764800000,   0.13600,
,,,0.002765200000,   0.14400,
,,,0.002765600000,   0.12800,
,,,0.002766000000,   0.12800,
,,,0.002766400000,   0.14400,
,,,0.002766800000,   0.14400,
,,,0.002767200000,   0.14400,
,,,0.002767600000,   0.15200,
,,,0.002768000000,   0.14400,
,,,0.002768400000,   0.14400,
,,,0.002768800000,   0.14400,
,,,0.002769200000,   0.16000,
,,,0.002769600000,   0.15200,
,,,0.002770000000,   0.15200,
,,,0.002770400000,   0.15200,
,,,0.002770800000,   0.16000,
,,,0.002771200000,   0.15200,
,,,0.002771600000,   0.16000,
,,,0.002772000000,   0.16000,
,,,0.002772400000,   0.16000,
,,,0.002772800000,   0.16000,
,,,0.002773200000,   0.16800,
,,,0.002773600000,   0.16800,
,,,0.002774000000,   0.16000,
,,,0.002774400000,   0.16800,
,,,0.002774800000,   0.16800,
,,,0.002775200000,   0.16800,
,,,0.002775600000,   0.16800,
,,,0.002776000000,   0.16800,
,,,0.002776400000,   0.17600,
,,,0.002776800000,   0.17600,
,,,0.002777200000,   0.18400,
,,,0.002777600000,   0.17600,
,,,0.002778000000,   0.18400,
,,,0.002778400000,   0.18400,
,,,0.002778800000,   0.18400,
,,,0.002779200000,   0.18400,
,,,0.002779600000,   0.17600,
,,,0.002780000000,   0.18400,
,,,0.002780400000,   0.19200,
,,,0.002780800000,   0.20000,
,,,0.002781200000,   0.18400,
,,,0.002781600000,   0.18400,
,,,0.002782000000,   0.19200,
,,,0.002782400000,   0.19200,
,,,0.002782800000,   0.18400,
,,,0.002783200000,   0.18400,
,,,0.002783600000,   0.20000,
,,,0.002784000000,   0.19200,
,,,0.002784400000,   0.20800,
,,,0.002784800000,   0.19200,
,,,0.002785200000,   0.20800,
,,,0.002785600000,   0.20000,
,,,0.002786000000,   0.20000,
,,,0.002786400000,   0.19200,
,,,0.002786800000,   0.20800,
,,,0.002787200000,   0.20000,
,,,0.002787600000,   0.20000,
,,,0.002788000000,   0.20000,
,,,0.002788400000,   0.20800,
,,,0.002788800000,   0.20000,
,,,0.002789200000,   0.20000,
,,,0.002789600000,   0.20000,
,,,0.002790000000,   0.19200,
,,,0.002790400000,   0.21600,
,,,0.002790800000,   0.21600,
,,,0.002791200000,   0.20800,
,,,0.002791600000,   0.21600,
,,,0.002792000000,   0.21600,
,,,0.002792400000,   0.21600,
,,,0.002792800000,   0.21600,
,,,0.002793200000,   0.21600,
,,,0.002793600000,   0.21600,
,,,0.002794000000,   0.21600,
,,,0.002794400000,   0.21600,
,,,0.002794800000,   0.20800,
,,,0.002795200000,   0.21600,
,,,0.002795600000,   0.21600,
,,,0.002796000000,   0.22400,
,,,0.002796400000,   0.22400,
,,,0.002796800000,   0.22400,
,,,0.002797200000,   0.22400,
,,,0.002797600000,   0.22400,
,,,0.002798000000,   0.21600,
,,,0.002798400000,   0.21600,
,,,0.002798800000,   0.21600,
,,,0.002799200000,   0.22400,
,,,0.002799600000,   0.22400,
,,,0.002800000000,   0.21600,
,,,0.002800400000,   0.21600,
,,,0.002800800000,   0.21600,
,,,0.002801200000,   0.21600,
,,,0.002801600000,   0.23200,
,,,0.002802000000,   0.22400,
,,,0.002802400000,   0.23200,
,,,0.002802800000,   0.22400,
,,,0.002803200000,   0.24000,
,,,0.002803600000,   0.23200,
,,,0.002804000000,   0.23200,
,,,0.002804400000,   0.22400,
,,,0.002804800000,   0.23200,
,,,0.002805200000,   0.22400,
,,,0.002805600000,   0.22400,
,,,0.002806000000,   0.23200,
,,,0.002806400000,   0.24000,
,,,0.002806800000,   0.23200,
,,,0.002807200000,   0.23200,
,,,0.002807600000,   0.24000,
,,,0.002808000000,   0.23200,
,,,0.002808400000,   0.23200,
,,,0.002808800000,   0.24000,
,,,0.002809200000,   0.22400,
,,,0.002809600000,   0.23200,
,,,0.002810000000,   0.23200,
,,,0.002810400000,   0.23200,
,,,0.002810800000,   0.23200,
,,,0.002811200000,   0.23200,
,,,0.002811600000,   0.23200,
,,,0.002812000000,   0.24000,
,,,0.002812400000,   0.24000,
,,,0.002812800000,   0.22400,
,,,0.002813200000,   0.24800,
,,,0.002813600000,   0.24800,
,,,0.002814000000,   0.24000,
,,,0.002814400000,   0.22400,
,,,0.002814800000,   0.23200,
,,,0.002815200000,   0.22400,
,,,0.002815600000,   0.23200,
,,,0.002816000000,   0.24000,
,,,0.002816400000,   0.24000,
,,,0.002816800000,   0.23200,
,,,0.002817200000,   0.24000,
,,,0.002817600000,   0.24000,
,,,0.002818000000,   0.22400,
,,,0.002818400000,   0.23200,
,,,0.002818800000,   0.23200,
,,,0.002819200000,   0.23200,
,,,0.002819600000,   0.24000,
,,,0.002820000000,   0.24000,
,,,0.002820400000,   0.22400,
,,,0.002820800000,   0.22400,
,,,0.002821200000,   0.23200,
,,,0.002821600000,   0.23200,
,,,0.002822000000,   0.23200,
,,,0.002822400000,   0.23200,
,,,0.002822800000,   0.22400,
,,,0.002823200000,   0.23200,
,,,0.002823600000,   0.22400,
,,,0.002824000000,   0.23200,
,,,0.002824400000,   0.23200,
,,,0.002824800000,   0.22400,
,,,0.002825200000,   0.23200,
,,,0.002825600000,   0.24000,
,,,0.002826000000,   0.22400,
,,,0.002826400000,   0.22400,
,,,0.002826800000,   0.23200,
,,,0.002827200000,   0.23200,
,,,0.002827600000,   0.23200,
,,,0.002828000000,   0.23200,
,,,0.002828400000,   0.21600,
,,,0.002828800000,   0.22400,
,,,0.002829200000,   0.22400,
,,,0.002829600000,   0.22400,
,,,0.002830000000,   0.22400,
,,,0.002830400000,   0.23200,
,,,0.002830800000,   0.21600,
,,,0.002831200000,   0.22400,
,,,0.002831600000,   0.22400,
,,,0.002832000000,   0.22400,
,,,0.002832400000,   0.22400,
,,,0.002832800000,   0.22400,
,,,0.002833200000,   0.21600,
,,,0.002833600000,   0.22400,
,,,0.002834000000,   0.22400,
,,,0.002834400000,   0.21600,
,,,0.002834800000,   0.22400,
,,,0.002835200000,   0.21600,
,,,0.002835600000,   0.21600,
,,,0.002836000000,   0.21600,
,,,0.002836400000,   0.21600,
,,,0.002836800000,   0.21600,
,,,0.002837200000,   0.22400,
,,,0.002837600000,   0.20800,
,,,0.002838000000,   0.20000,
,,,0.002838400000,   0.20000,
,,,0.002838800000,   0.21600,
,,,0.002839200000,   0.20800,
,,,0.002839600000,   0.20000,
,,,0.002840000000,   0.20800,
,,,0.002840400000,   0.20000,
,,,0.002840800000,   0.20000,
,,,0.002841200000,   0.22400,
,,,0.002841600000,   0.20800,
,,,0.002842000000,   0.20000,
,,,0.002842400000,   0.20000,
,,,0.002842800000,   0.20800,
,,,0.002843200000,   0.20800,
,,,0.002843600000,   0.20000,
,,,0.002844000000,   0.19200,
,,,0.002844400000,   0.18400,
,,,0.002844800000,   0.20800,
,,,0.002845200000,   0.20000,
,,,0.002845600000,   0.20000,
,,,0.002846000000,   0.20000,
,,,0.002846400000,   0.20000,
,,,0.002846800000,   0.20000,
,,,0.002847200000,   0.19200,
,,,0.002847600000,   0.20000,
,,,0.002848000000,   0.19200,
,,,0.002848400000,   0.18400,
,,,0.002848800000,   0.19200,
,,,0.002849200000,   0.18400,
,,,0.002849600000,   0.18400,
,,,0.002850000000,   0.18400,
,,,0.002850400000,   0.16800,
,,,0.002850800000,   0.17600,
,,,0.002851200000,   0.17600,
,,,0.002851600000,   0.17600,
,,,0.002852000000,   0.17600,
,,,0.002852400000,   0.18400,
,,,0.002852800000,   0.17600,
,,,0.002853200000,   0.18400,
,,,0.002853600000,   0.17600,
,,,0.002854000000,   0.16800,
,,,0.002854400000,   0.16800,
,,,0.002854800000,   0.17600,
,,,0.002855200000,   0.17600,
,,,0.002855600000,   0.16800,
,,,0.002856000000,   0.17600,
,,,0.002856400000,   0.17600,
,,,0.002856800000,   0.16800,
,,,0.002857200000,   0.16000,
,,,0.002857600000,   0.16800,
,,,0.002858000000,   0.16000,
,,,0.002858400000,   0.16000,
,,,0.002858800000,   0.16800,
,,,0.002859200000,   0.16000,
,,,0.002859600000,   0.16000,
